# 3ds Max Wavefront OBJ Exporter v0.97b - (c)2007 guruware
# File Created: 16.12.2015 18:50:40

#
# object DoorsWay_T1_01
#

v  160.0000 370.0001 25.0000
v  -160.0000 370.0001 25.0000
v  -160.0000 370.0001 7.4807
v  160.0000 370.0001 7.4807
v  160.0000 400.0001 25.0000
v  -160.0000 400.0001 25.0000
v  -160.0000 400.0001 -0.0000
v  -160.0000 320.1356 7.4807
v  -100.0000 320.1356 7.4807
v  -100.0000 315.1356 7.4807
v  100.0000 315.1356 7.4807
v  100.0000 320.1356 7.4807
v  160.0000 320.1356 7.4807
v  -100.0000 315.1356 12.5000
v  -100.0000 295.1356 12.5000
v  100.0000 295.1356 12.5000
v  100.0000 315.1356 12.5000
v  -100.0000 295.1356 -0.0000
v  160.0000 290.1356 -0.0000
v  160.0000 290.1356 25.0000
v  100.0000 290.1356 25.0000
v  100.0000 320.1356 25.0000
v  160.0000 320.1356 25.0000
v  -160.0000 290.1356 -0.0000
v  -100.0000 290.1356 25.0000
v  -160.0000 290.1356 25.0000
v  -160.0000 320.1356 -0.0000
v  -160.0000 320.1356 25.0000
v  -100.0000 320.1356 25.0000
v  -100.0000 320.1356 -0.0000
v  100.0000 40.1356 25.0000
v  160.0000 40.1356 25.0000
v  100.0000 0.0000 25.0000
v  160.0000 0.0000 25.0000
v  100.0000 0.0000 -0.0000
v  -160.0000 40.1356 25.0000
v  -100.0000 40.1356 25.0000
v  -100.0000 40.1356 -0.0000
v  -160.0000 0.0000 25.0000
v  -100.0000 0.0000 25.0000
v  -100.0000 0.0000 -0.0000
v  110.0000 370.0001 15.0000
v  110.0000 320.1356 15.0000
v  150.0000 320.1356 15.0000
v  150.0000 370.0001 15.0000
v  150.0000 320.1356 7.4807
v  150.0000 370.0001 7.4807
v  110.0000 370.0001 7.4807
v  110.0000 320.1356 7.4807
v  -110.0000 370.0001 15.0000
v  -150.0000 370.0001 15.0000
v  -150.0000 320.1356 15.0000
v  -110.0000 320.1356 15.0000
v  -150.0000 370.0001 7.4807
v  -150.0000 320.1356 7.4807
v  -110.0000 370.0001 7.4807
v  -110.0000 320.1356 7.4807
v  140.0000 50.1356 10.0000
v  140.0000 280.1356 10.0000
v  120.0000 280.1356 10.0000
v  120.0000 50.1356 10.0000
v  150.0000 290.1356 15.0000
v  150.0000 40.1356 15.0000
v  140.0000 50.1356 15.0000
v  120.0000 50.1356 15.0000
v  110.0000 40.1356 15.0000
v  140.0000 280.1356 15.0000
v  120.0000 280.1356 15.0000
v  110.0000 290.1356 15.0000
v  110.0000 290.1356 -0.0000
v  110.0000 40.1356 -0.0000
v  150.0000 40.1357 13.0000
v  160.0000 40.1357 13.0000
v  160.0000 290.1357 13.0000
v  150.0000 290.1357 13.0000
v  100.0000 40.1357 13.0000
v  110.0000 40.1357 13.0000
v  110.0000 290.1357 13.0000
v  100.0000 290.1357 13.0000
v  -110.0000 40.1357 13.0000
v  -100.0000 40.1357 13.0000
v  -100.0000 290.1357 13.0000
v  -110.0000 290.1357 13.0000
v  -100.0000 40.1357 -0.0000
v  -160.0000 40.1357 13.0000
v  -150.0000 40.1357 13.0000
v  -150.0000 290.1357 13.0000
v  -160.0000 290.1357 13.0000
v  -190.0000 334.0813 35.0000
v  -190.0000 210.0000 35.0000
v  -170.0000 210.0000 35.0000
v  -170.0000 334.0813 35.0000
v  -200.0000 200.0000 40.0000
v  -160.0000 200.0000 40.0000
v  -170.0000 210.0000 40.0000
v  -190.0000 210.0000 40.0000
v  -170.0000 334.0813 40.0000
v  -160.0000 344.0813 40.0000
v  -200.0000 344.0813 40.0000
v  -190.0000 334.0813 40.0000
v  -190.0000 190.0000 35.0000
v  -190.0000 65.9187 35.0000
v  -170.0000 65.9187 35.0000
v  -170.0000 190.0000 35.0000
v  -200.0000 55.9187 40.0000
v  -160.0000 55.9187 40.0000
v  -170.0000 65.9187 40.0000
v  -190.0000 65.9187 40.0000
v  -170.0000 190.0000 40.0000
v  -190.0000 190.0000 40.0000
v  -160.0000 200.0000 -0.0000
v  -160.0000 344.0813 -0.0000
v  -200.0000 55.9187 -0.0000
v  169.9999 334.0813 35.0000
v  169.9999 210.0000 35.0000
v  189.9999 210.0000 35.0000
v  189.9999 334.0813 35.0000
v  159.9999 200.0000 40.0000
v  199.9999 200.0000 40.0000
v  189.9999 210.0000 40.0000
v  169.9999 210.0000 40.0000
v  189.9999 334.0813 40.0000
v  199.9999 344.0813 40.0000
v  159.9999 344.0813 40.0000
v  169.9999 334.0813 40.0000
v  169.9999 190.0000 35.0000
v  169.9999 65.9187 35.0000
v  189.9999 65.9187 35.0000
v  189.9999 190.0000 35.0000
v  159.9999 55.9187 40.0000
v  199.9999 55.9187 40.0000
v  189.9999 65.9187 40.0000
v  169.9999 65.9187 40.0000
v  189.9999 190.0000 40.0000
v  169.9999 190.0000 40.0000
v  159.9999 200.0000 -0.0000
v  199.9999 400.0000 40.0000
v  199.9999 400.0000 -0.0000
v  159.9999 400.0000 40.0000
v  159.9999 0.0000 -0.0000
v  199.9999 0.0000 40.0000
v  159.9999 0.0000 40.0000
v  -160.0000 0.0000 40.0000
v  -200.0000 0.0000 40.0000
v  -160.0000 400.0000 40.0000
v  -200.0000 400.0000 40.0000
v  -140.0000 50.1356 10.0000
v  -120.0000 50.1356 10.0000
v  -120.0000 280.1356 10.0000
v  -140.0000 280.1356 10.0000
v  -150.0000 40.1356 -0.0000
v  -150.0000 40.1356 15.0000
v  -150.0000 290.1356 15.0000
v  -150.0000 290.1356 -0.0000
v  -140.0000 50.1356 15.0000
v  -110.0000 40.1356 15.0000
v  -120.0000 50.1356 15.0000
v  -140.0000 280.1356 15.0000
v  -120.0000 280.1356 15.0000
v  -110.0000 290.1356 15.0000
v  100.0000 40.1356 -0.0000
v  -160.0000 370.0001 -25.0000
v  -160.0000 370.0001 -7.4807
v  160.0000 370.0001 -7.4807
v  160.0000 370.0001 -25.0000
v  -160.0000 400.0001 -25.0000
v  160.0000 400.0001 -25.0000
v  -160.0000 320.1356 -7.4807
v  -100.0000 320.1356 -7.4807
v  -100.0000 315.1356 -7.4807
v  100.0000 315.1356 -7.4807
v  100.0000 320.1356 -7.4807
v  160.0000 320.1356 -7.4807
v  -100.0000 295.1356 -12.5000
v  100.0000 295.1356 -12.5000
v  100.0000 315.1356 -12.5000
v  -100.0000 315.1356 -12.5000
v  100.0000 295.1356 -0.0000
v  160.0000 290.1356 -25.0000
v  100.0000 290.1356 -25.0000
v  100.0000 320.1356 -0.0000
v  100.0000 320.1356 -25.0000
v  160.0000 320.1356 -25.0000
v  160.0000 320.1356 -0.0000
v  -100.0000 290.1356 -25.0000
v  -160.0000 290.1356 -25.0000
v  -160.0000 320.1356 -25.0000
v  -100.0000 320.1356 -25.0000
v  100.0000 40.1356 -25.0000
v  160.0000 40.1356 -25.0000
v  160.0000 40.1356 -0.0000
v  100.0000 0.0000 -25.0000
v  160.0000 0.0000 -25.0000
v  -160.0000 40.1356 -25.0000
v  -100.0000 40.1356 -25.0000
v  -160.0000 40.1356 -0.0000
v  -160.0000 0.0000 -25.0000
v  -100.0000 0.0000 -25.0000
v  110.0000 320.1356 -15.0000
v  150.0000 320.1356 -15.0000
v  150.0000 370.0001 -15.0000
v  110.0000 370.0001 -15.0000
v  150.0000 320.1356 -7.4807
v  150.0000 370.0001 -7.4807
v  110.0000 320.1356 -7.4807
v  110.0000 370.0001 -7.4807
v  -150.0000 370.0001 -15.0000
v  -150.0000 320.1356 -15.0000
v  -110.0000 320.1356 -15.0000
v  -110.0000 370.0001 -15.0000
v  -150.0000 370.0001 -7.4807
v  -150.0000 320.1356 -7.4807
v  -110.0000 320.1356 -7.4807
v  -110.0000 370.0001 -7.4807
v  140.0000 280.1356 -10.0000
v  120.0000 280.1356 -10.0000
v  120.0000 50.1356 -10.0000
v  140.0000 50.1356 -10.0000
v  150.0000 290.1356 -0.0000
v  150.0000 290.1356 -15.0000
v  150.0000 40.1356 -15.0000
v  150.0000 40.1356 -0.0000
v  120.0000 50.1356 -15.0000
v  110.0000 40.1356 -15.0000
v  140.0000 50.1356 -15.0000
v  140.0000 280.1356 -15.0000
v  110.0000 290.1356 -15.0000
v  120.0000 280.1356 -15.0000
v  160.0000 40.1357 -13.0000
v  160.0000 290.1357 -13.0000
v  150.0000 290.1357 -13.0000
v  150.0000 40.1357 -13.0000
v  110.0000 40.1357 -13.0000
v  110.0000 290.1357 -13.0000
v  100.0000 290.1357 -13.0000
v  100.0000 40.1357 -13.0000
v  100.0000 290.1356 -0.0000
v  -100.0000 40.1357 -13.0000
v  -100.0000 290.1357 -13.0000
v  -110.0000 290.1357 -13.0000
v  -110.0000 40.1357 -13.0000
v  -100.0000 290.1356 -0.0000
v  -150.0000 40.1357 -13.0000
v  -150.0000 290.1357 -13.0000
v  -160.0000 290.1357 -13.0000
v  -160.0000 40.1357 -13.0000
v  -190.0000 210.0000 -35.0000
v  -170.0000 210.0000 -35.0000
v  -170.0000 334.0813 -35.0000
v  -190.0000 334.0813 -35.0000
v  -160.0000 200.0000 -40.0000
v  -170.0000 210.0000 -40.0000
v  -190.0000 210.0000 -40.0000
v  -200.0000 200.0000 -40.0000
v  -160.0000 344.0813 -40.0000
v  -170.0000 334.0813 -40.0000
v  -200.0000 344.0813 -40.0000
v  -190.0000 334.0813 -40.0000
v  -190.0000 65.9187 -35.0000
v  -170.0000 65.9187 -35.0000
v  -170.0000 190.0000 -35.0000
v  -190.0000 190.0000 -35.0000
v  -160.0000 55.9187 -40.0000
v  -170.0000 65.9187 -40.0000
v  -190.0000 65.9187 -40.0000
v  -200.0000 55.9187 -40.0000
v  -170.0000 190.0000 -40.0000
v  -190.0000 190.0000 -40.0000
v  -200.0000 344.0813 -0.0000
v  -200.0000 200.0000 -0.0000
v  -160.0000 55.9187 -0.0000
v  169.9999 210.0000 -35.0000
v  189.9999 210.0000 -35.0000
v  189.9999 334.0813 -35.0000
v  169.9999 334.0813 -35.0000
v  199.9999 200.0000 -40.0000
v  189.9999 210.0000 -40.0000
v  169.9999 210.0000 -40.0000
v  159.9999 200.0000 -40.0000
v  199.9999 344.0813 -40.0000
v  189.9999 334.0813 -40.0000
v  159.9999 344.0813 -40.0000
v  169.9999 334.0813 -40.0000
v  169.9999 65.9187 -35.0000
v  189.9999 65.9187 -35.0000
v  189.9999 190.0000 -35.0000
v  169.9999 190.0000 -35.0000
v  199.9999 55.9187 -40.0000
v  189.9999 65.9187 -40.0000
v  169.9999 65.9187 -40.0000
v  159.9999 55.9187 -40.0000
v  189.9999 190.0000 -40.0000
v  169.9999 190.0000 -40.0000
v  199.9999 200.0000 -0.0000
v  199.9999 344.0813 -0.0000
v  159.9999 344.0813 -0.0000
v  199.9999 55.9187 -0.0000
v  159.9999 55.9187 -0.0000
v  159.9999 400.0001 -0.0000
v  159.9999 400.0000 -40.0000
v  199.9999 400.0000 -40.0000
v  199.9999 0.0000 -0.0000
v  199.9999 0.0000 -40.0000
v  159.9999 0.0000 -40.0000
v  -160.0000 0.0000 -0.0000
v  -160.0000 0.0000 -40.0000
v  -200.0000 0.0000 -40.0000
v  -200.0000 0.0000 -0.0000
v  -160.0000 400.0000 -0.0000
v  -200.0000 400.0000 -0.0000
v  -200.0000 400.0000 -40.0000
v  -160.0000 400.0000 -40.0000
v  -120.0000 50.1356 -10.0000
v  -120.0000 280.1356 -10.0000
v  -140.0000 280.1356 -10.0000
v  -140.0000 50.1356 -10.0000
v  -150.0000 40.1356 -15.0000
v  -150.0000 290.1356 -15.0000
v  -110.0000 40.1356 -15.0000
v  -120.0000 50.1356 -15.0000
v  -140.0000 50.1356 -15.0000
v  -140.0000 280.1356 -15.0000
v  -110.0000 290.1356 -15.0000
v  -120.0000 280.1356 -15.0000
v  -110.0000 40.1356 -0.0000
v  -110.0000 290.1356 -0.0000
# 326 vertices

vn 0.0000 -1.0000 -0.0000
vn 0.0000 -1.0000 -0.0000
vn 0.0000 -1.0000 -0.0000
vn 0.0000 -1.0000 -0.0000
vn 0.0000 0.0000 1.0000
vn 0.0000 0.0000 1.0000
vn 0.0000 0.0000 1.0000
vn 0.0000 0.0000 1.0000
vn 0.0000 1.0000 -0.0000
vn 0.0000 1.0000 -0.0000
vn 0.0000 1.0000 -0.0000
vn 0.0000 1.0000 -0.0000
vn 0.0000 0.0000 1.0000
vn 0.0000 0.0000 1.0000
vn 0.0000 0.0000 1.0000
vn 0.0000 0.0000 1.0000
vn 0.0000 0.0000 1.0000
vn 0.0000 0.0000 1.0000
vn 0.0000 0.0000 1.0000
vn 0.0000 0.0000 1.0000
vn 0.0000 0.0000 1.0000
vn 0.0000 0.0000 1.0000
vn 0.0000 0.0000 1.0000
vn 0.0000 0.0000 1.0000
vn 0.0000 0.0000 1.0000
vn 0.0000 0.0000 1.0000
vn 0.0000 0.0000 1.0000
vn 0.0000 0.0000 1.0000
vn 0.0000 0.0000 1.0000
vn 0.0000 0.0000 1.0000
vn 0.0000 1.0000 -0.0000
vn 0.0000 1.0000 -0.0000
vn 0.0000 1.0000 -0.0000
vn 0.0000 1.0000 -0.0000
vn 0.0000 -1.0000 -0.0000
vn 0.0000 -1.0000 -0.0000
vn 0.0000 -1.0000 -0.0000
vn 0.0000 -1.0000 -0.0000
vn 0.0000 -1.0000 -0.0000
vn 0.0000 -1.0000 -0.0000
vn 0.0000 -1.0000 -0.0000
vn 0.0000 -1.0000 -0.0000
vn 0.0000 1.0000 -0.0000
vn 0.0000 1.0000 -0.0000
vn 0.0000 1.0000 -0.0000
vn 0.0000 1.0000 -0.0000
vn 0.0000 0.0000 1.0000
vn 0.0000 0.0000 1.0000
vn 0.0000 0.0000 1.0000
vn 0.0000 0.0000 1.0000
vn -1.0000 0.0000 -0.0000
vn -1.0000 0.0000 -0.0000
vn -1.0000 0.0000 -0.0000
vn -1.0000 0.0000 -0.0000
vn 0.0000 -1.0000 -0.0000
vn 0.0000 -1.0000 -0.0000
vn 0.0000 -1.0000 -0.0000
vn 0.0000 -1.0000 -0.0000
vn 0.0000 1.0000 -0.0000
vn 0.0000 1.0000 -0.0000
vn 0.0000 1.0000 -0.0000
vn 0.0000 1.0000 -0.0000
vn 0.0000 0.0000 1.0000
vn 0.0000 0.0000 1.0000
vn 0.0000 0.0000 1.0000
vn 0.0000 0.0000 1.0000
vn 1.0000 0.0000 -0.0000
vn 1.0000 0.0000 -0.0000
vn 1.0000 0.0000 -0.0000
vn 1.0000 0.0000 -0.0000
vn 0.0000 1.0000 -0.0000
vn 0.0000 1.0000 -0.0000
vn 0.0000 1.0000 -0.0000
vn 0.0000 1.0000 -0.0000
vn 0.0000 0.0000 1.0000
vn 0.0000 0.0000 1.0000
vn 0.0000 0.0000 1.0000
vn 0.0000 0.0000 1.0000
vn -1.0000 0.0000 -0.0000
vn -1.0000 0.0000 -0.0000
vn -1.0000 0.0000 -0.0000
vn -1.0000 0.0000 -0.0000
vn 0.0000 1.0000 -0.0000
vn 0.0000 1.0000 -0.0000
vn 0.0000 1.0000 -0.0000
vn 0.0000 1.0000 -0.0000
vn 0.0000 0.0000 1.0000
vn 0.0000 0.0000 1.0000
vn 0.0000 0.0000 1.0000
vn 0.0000 0.0000 1.0000
vn 1.0000 0.0000 -0.0000
vn 1.0000 0.0000 -0.0000
vn 1.0000 0.0000 -0.0000
vn 1.0000 0.0000 -0.0000
vn 0.0000 0.0000 1.0000
vn 0.0000 0.0000 1.0000
vn 0.0000 0.0000 1.0000
vn 0.0000 0.0000 1.0000
vn 1.0000 0.0000 -0.0000
vn 1.0000 0.0000 -0.0000
vn 1.0000 0.0000 -0.0000
vn 1.0000 0.0000 -0.0000
vn -1.0000 0.0000 -0.0000
vn -1.0000 0.0000 -0.0000
vn -1.0000 0.0000 -0.0000
vn -1.0000 0.0000 -0.0000
vn 0.0000 0.0000 1.0000
vn 0.0000 0.0000 1.0000
vn 0.0000 0.0000 1.0000
vn 0.0000 0.0000 1.0000
vn -1.0000 0.0000 -0.0000
vn -1.0000 0.0000 -0.0000
vn -1.0000 0.0000 -0.0000
vn -1.0000 0.0000 -0.0000
vn 1.0000 0.0000 -0.0000
vn 1.0000 0.0000 -0.0000
vn 1.0000 0.0000 -0.0000
vn 1.0000 0.0000 -0.0000
vn 0.0000 0.0000 1.0000
vn 0.0000 0.0000 1.0000
vn 0.0000 0.0000 1.0000
vn 0.0000 0.0000 1.0000
vn 1.0000 0.0000 -0.0000
vn 1.0000 0.0000 -0.0000
vn 1.0000 0.0000 -0.0000
vn 1.0000 0.0000 -0.0000
vn 0.0000 0.0000 1.0000
vn 0.0000 0.0000 1.0000
vn 0.0000 0.0000 1.0000
vn 0.0000 0.0000 1.0000
vn 0.0000 0.0000 1.0000
vn 0.0000 0.0000 1.0000
vn 0.0000 0.0000 1.0000
vn 0.0000 0.0000 1.0000
vn 0.0000 0.0000 1.0000
vn 0.0000 0.0000 1.0000
vn 0.0000 0.0000 1.0000
vn 0.0000 0.0000 1.0000
vn 0.0000 0.0000 1.0000
vn 0.0000 0.0000 1.0000
vn 0.0000 0.0000 1.0000
vn 0.0000 0.0000 1.0000
vn 0.0000 1.0000 -0.0000
vn 0.0000 1.0000 -0.0000
vn 0.0000 1.0000 -0.0000
vn 0.0000 1.0000 -0.0000
vn -1.0000 0.0000 -0.0000
vn -1.0000 0.0000 -0.0000
vn -1.0000 0.0000 -0.0000
vn -1.0000 0.0000 -0.0000
vn 0.0000 -1.0000 -0.0000
vn 0.0000 -1.0000 -0.0000
vn 0.0000 -1.0000 -0.0000
vn 0.0000 -1.0000 -0.0000
vn 1.0000 0.0000 -0.0000
vn 1.0000 0.0000 -0.0000
vn 1.0000 0.0000 -0.0000
vn 1.0000 0.0000 -0.0000
vn -1.0000 0.0000 -0.0000
vn -1.0000 0.0000 -0.0000
vn -1.0000 0.0000 -0.0000
vn -1.0000 0.0000 -0.0000
vn 0.0000 0.0000 1.0000
vn 0.0000 0.0000 1.0000
vn 0.0000 0.0000 1.0000
vn 0.0000 0.0000 1.0000
vn 0.0000 0.0000 1.0000
vn 0.0000 0.0000 1.0000
vn 0.0000 0.0000 1.0000
vn 0.0000 0.0000 1.0000
vn -1.0000 0.0000 -0.0000
vn -1.0000 0.0000 -0.0000
vn -1.0000 0.0000 -0.0000
vn -1.0000 0.0000 -0.0000
vn 0.0000 0.0000 1.0000
vn 0.0000 0.0000 1.0000
vn 0.0000 0.0000 1.0000
vn 0.0000 0.0000 1.0000
vn 1.0000 0.0000 -0.0000
vn 1.0000 0.0000 -0.0000
vn 1.0000 0.0000 -0.0000
vn 1.0000 0.0000 -0.0000
vn 0.0000 0.0000 1.0000
vn 0.0000 0.0000 1.0000
vn 0.0000 0.0000 1.0000
vn 0.0000 0.0000 1.0000
vn 0.0000 0.0000 1.0000
vn 0.0000 0.0000 1.0000
vn 0.0000 0.0000 1.0000
vn 0.0000 0.0000 1.0000
vn 0.0000 0.0000 1.0000
vn 0.0000 0.0000 1.0000
vn 0.0000 0.0000 1.0000
vn 0.0000 0.0000 1.0000
vn 0.0000 0.0000 1.0000
vn 0.0000 0.0000 1.0000
vn 0.0000 0.0000 1.0000
vn 0.0000 0.0000 1.0000
vn 0.0000 0.0000 1.0000
vn 0.0000 0.0000 1.0000
vn 0.0000 0.0000 1.0000
vn 0.0000 0.0000 1.0000
vn 0.0000 0.0000 1.0000
vn 0.0000 0.0000 1.0000
vn 0.0000 0.0000 1.0000
vn 0.0000 0.0000 1.0000
vn 0.0000 1.0000 -0.0000
vn 0.0000 1.0000 -0.0000
vn 0.0000 1.0000 -0.0000
vn 0.0000 1.0000 -0.0000
vn -1.0000 0.0000 -0.0000
vn -1.0000 0.0000 -0.0000
vn -1.0000 0.0000 -0.0000
vn -1.0000 0.0000 -0.0000
vn 0.0000 -1.0000 -0.0000
vn 0.0000 -1.0000 -0.0000
vn 0.0000 -1.0000 -0.0000
vn 0.0000 -1.0000 -0.0000
vn 1.0000 0.0000 -0.0000
vn 1.0000 0.0000 -0.0000
vn 1.0000 0.0000 -0.0000
vn 1.0000 0.0000 -0.0000
vn 0.0000 0.0000 1.0000
vn 0.0000 0.0000 1.0000
vn 0.0000 0.0000 1.0000
vn 0.0000 0.0000 1.0000
vn 0.0000 0.0000 1.0000
vn 0.0000 0.0000 1.0000
vn 0.0000 0.0000 1.0000
vn 0.0000 0.0000 1.0000
vn 0.0000 0.0000 1.0000
vn 0.0000 0.0000 1.0000
vn 0.0000 0.0000 1.0000
vn 0.0000 0.0000 1.0000
vn 0.0000 0.0000 1.0000
vn 0.0000 0.0000 1.0000
vn 0.0000 0.0000 1.0000
vn 0.0000 0.0000 1.0000
vn 0.0000 0.0000 1.0000
vn 0.0000 0.0000 1.0000
vn 0.0000 0.0000 1.0000
vn 0.0000 0.0000 1.0000
vn 0.0000 1.0000 -0.0000
vn 0.0000 1.0000 -0.0000
vn 0.0000 1.0000 -0.0000
vn 0.0000 1.0000 -0.0000
vn -1.0000 0.0000 -0.0000
vn -1.0000 0.0000 -0.0000
vn -1.0000 0.0000 -0.0000
vn -1.0000 0.0000 -0.0000
vn 0.0000 -1.0000 -0.0000
vn 0.0000 -1.0000 -0.0000
vn 0.0000 -1.0000 -0.0000
vn 0.0000 -1.0000 -0.0000
vn 1.0000 0.0000 -0.0000
vn 1.0000 0.0000 -0.0000
vn 1.0000 0.0000 -0.0000
vn 1.0000 0.0000 -0.0000
vn 1.0000 0.0000 -0.0000
vn 1.0000 0.0000 -0.0000
vn 1.0000 0.0000 -0.0000
vn 1.0000 0.0000 -0.0000
vn -1.0000 0.0000 -0.0000
vn -1.0000 0.0000 -0.0000
vn -1.0000 0.0000 -0.0000
vn -1.0000 0.0000 -0.0000
vn 1.0000 0.0000 -0.0000
vn 1.0000 0.0000 -0.0000
vn 1.0000 0.0000 -0.0000
vn 1.0000 0.0000 -0.0000
vn -1.0000 0.0000 -0.0000
vn -1.0000 0.0000 -0.0000
vn -1.0000 0.0000 -0.0000
vn -1.0000 0.0000 -0.0000
vn 0.0000 0.0000 1.0000
vn 0.0000 0.0000 1.0000
vn 0.0000 0.0000 1.0000
vn 0.0000 0.0000 1.0000
vn 0.0000 0.0000 1.0000
vn 0.0000 0.0000 1.0000
vn 0.0000 0.0000 1.0000
vn 0.0000 0.0000 1.0000
vn 0.0000 0.0000 1.0000
vn 0.0000 0.0000 1.0000
vn 0.0000 0.0000 1.0000
vn 0.0000 0.0000 1.0000
vn 0.0000 0.0000 1.0000
vn 0.0000 0.0000 1.0000
vn 0.0000 0.0000 1.0000
vn 0.0000 0.0000 1.0000
vn 0.0000 0.0000 1.0000
vn 0.0000 0.0000 1.0000
vn 0.0000 0.0000 1.0000
vn 0.0000 0.0000 1.0000
vn 0.0000 1.0000 -0.0000
vn 0.0000 1.0000 -0.0000
vn 0.0000 1.0000 -0.0000
vn 0.0000 1.0000 -0.0000
vn -1.0000 0.0000 -0.0000
vn -1.0000 0.0000 -0.0000
vn -1.0000 0.0000 -0.0000
vn -1.0000 0.0000 -0.0000
vn 0.0000 -1.0000 -0.0000
vn 0.0000 -1.0000 -0.0000
vn 0.0000 -1.0000 -0.0000
vn 0.0000 -1.0000 -0.0000
vn 1.0000 0.0000 -0.0000
vn 1.0000 0.0000 -0.0000
vn 1.0000 0.0000 -0.0000
vn 1.0000 0.0000 -0.0000
vn 0.0000 0.0000 1.0000
vn 0.0000 0.0000 1.0000
vn 0.0000 0.0000 1.0000
vn 0.0000 0.0000 1.0000
vn 0.0000 0.0000 1.0000
vn 0.0000 0.0000 1.0000
vn 0.0000 0.0000 1.0000
vn 0.0000 0.0000 1.0000
vn 0.0000 0.0000 1.0000
vn 0.0000 0.0000 1.0000
vn 0.0000 0.0000 1.0000
vn 0.0000 0.0000 1.0000
vn 0.0000 0.0000 1.0000
vn 0.0000 0.0000 1.0000
vn 0.0000 0.0000 1.0000
vn 0.0000 0.0000 1.0000
vn 0.0000 0.0000 1.0000
vn 0.0000 0.0000 1.0000
vn 0.0000 0.0000 1.0000
vn 0.0000 0.0000 1.0000
vn 0.0000 1.0000 -0.0000
vn 0.0000 1.0000 -0.0000
vn 0.0000 1.0000 -0.0000
vn 0.0000 1.0000 -0.0000
vn -1.0000 0.0000 -0.0000
vn -1.0000 0.0000 -0.0000
vn -1.0000 0.0000 -0.0000
vn -1.0000 0.0000 -0.0000
vn 0.0000 -1.0000 -0.0000
vn 0.0000 -1.0000 -0.0000
vn 0.0000 -1.0000 -0.0000
vn 0.0000 -1.0000 -0.0000
vn 1.0000 0.0000 -0.0000
vn 1.0000 0.0000 -0.0000
vn 1.0000 0.0000 -0.0000
vn 1.0000 0.0000 -0.0000
vn 1.0000 0.0000 -0.0000
vn 1.0000 0.0000 -0.0000
vn 1.0000 0.0000 -0.0000
vn 1.0000 0.0000 -0.0000
vn -1.0000 0.0000 -0.0000
vn -1.0000 0.0000 -0.0000
vn -1.0000 0.0000 -0.0000
vn -1.0000 0.0000 -0.0000
vn 1.0000 0.0000 -0.0000
vn 1.0000 0.0000 -0.0000
vn 1.0000 0.0000 -0.0000
vn 1.0000 0.0000 -0.0000
vn -1.0000 0.0000 -0.0000
vn -1.0000 0.0000 -0.0000
vn -1.0000 0.0000 -0.0000
vn -1.0000 0.0000 -0.0000
vn 0.0000 1.0000 0.0000
vn 0.0000 1.0000 -0.0000
vn 0.0000 1.0000 -0.0000
vn 0.0000 1.0000 -0.0000
vn 0.0000 0.0000 1.0000
vn 0.0000 0.0000 1.0000
vn 0.0000 0.0000 1.0000
vn 0.0000 0.0000 1.0000
vn 1.0000 0.0000 -0.0000
vn 1.0000 0.0000 -0.0000
vn 1.0000 0.0000 -0.0000
vn 1.0000 0.0000 -0.0000
vn -1.0000 0.0000 -0.0000
vn -1.0000 0.0000 -0.0000
vn -1.0000 0.0000 -0.0000
vn -1.0000 0.0000 -0.0000
vn 0.0000 -1.0000 -0.0000
vn 0.0000 -1.0000 -0.0000
vn 0.0000 -1.0000 -0.0000
vn 0.0000 -1.0000 -0.0000
vn 0.0000 0.0000 1.0000
vn 0.0000 0.0000 1.0000
vn 0.0000 0.0000 1.0000
vn 0.0000 0.0000 1.0000
vn 0.0000 -1.0000 -0.0000
vn 0.0000 -1.0000 -0.0000
vn 0.0000 -1.0000 -0.0000
vn 0.0000 -1.0000 -0.0000
vn 0.0000 0.0000 1.0000
vn 0.0000 0.0000 1.0000
vn 0.0000 0.0000 1.0000
vn 0.0000 0.0000 1.0000
vn 0.0000 1.0000 -0.0000
vn 0.0000 1.0000 -0.0000
vn 0.0000 1.0000 -0.0000
vn 0.0000 1.0000 -0.0000
vn 0.0000 0.0000 1.0000
vn 0.0000 0.0000 1.0000
vn 0.0000 0.0000 1.0000
vn 0.0000 0.0000 1.0000
vn 1.0000 0.0000 -0.0000
vn 1.0000 0.0000 -0.0000
vn 1.0000 0.0000 -0.0000
vn 1.0000 0.0000 -0.0000
vn -1.0000 0.0000 -0.0000
vn -1.0000 0.0000 -0.0000
vn -1.0000 0.0000 -0.0000
vn -1.0000 0.0000 -0.0000
vn -1.0000 0.0000 -0.0000
vn -1.0000 0.0000 -0.0000
vn -1.0000 0.0000 -0.0000
vn -1.0000 0.0000 -0.0000
vn 1.0000 0.0000 -0.0000
vn 1.0000 0.0000 -0.0000
vn 1.0000 0.0000 -0.0000
vn 1.0000 0.0000 -0.0000
vn -1.0000 0.0000 -0.0000
vn -1.0000 0.0000 -0.0000
vn -1.0000 0.0000 -0.0000
vn -1.0000 0.0000 -0.0000
vn 1.0000 0.0000 -0.0000
vn 1.0000 0.0000 -0.0000
vn 1.0000 0.0000 -0.0000
vn 1.0000 0.0000 -0.0000
vn 0.0000 0.0000 1.0000
vn 0.0000 0.0000 1.0000
vn 0.0000 0.0000 1.0000
vn 0.0000 0.0000 1.0000
vn -1.0000 0.0000 -0.0000
vn -1.0000 0.0000 -0.0000
vn -1.0000 0.0000 -0.0000
vn -1.0000 0.0000 -0.0000
vn 0.0000 0.0000 1.0000
vn 0.0000 0.0000 1.0000
vn 0.0000 0.0000 1.0000
vn 0.0000 0.0000 1.0000
vn 0.0000 0.0000 1.0000
vn 0.0000 0.0000 1.0000
vn 0.0000 0.0000 1.0000
vn 0.0000 0.0000 1.0000
vn 0.0000 0.0000 1.0000
vn 0.0000 0.0000 1.0000
vn 0.0000 0.0000 1.0000
vn 0.0000 0.0000 1.0000
vn 0.0000 0.0000 1.0000
vn 0.0000 0.0000 1.0000
vn 0.0000 0.0000 1.0000
vn 0.0000 0.0000 1.0000
vn 0.0000 1.0000 -0.0000
vn 0.0000 1.0000 -0.0000
vn 0.0000 1.0000 -0.0000
vn 0.0000 1.0000 -0.0000
vn 1.0000 0.0000 -0.0000
vn 1.0000 0.0000 -0.0000
vn 1.0000 0.0000 -0.0000
vn 1.0000 0.0000 -0.0000
vn 0.0000 -1.0000 -0.0000
vn 0.0000 -1.0000 -0.0000
vn 0.0000 -1.0000 -0.0000
vn 0.0000 -1.0000 -0.0000
vn -1.0000 0.0000 -0.0000
vn -1.0000 0.0000 -0.0000
vn -1.0000 0.0000 -0.0000
vn -1.0000 0.0000 -0.0000
vn 1.0000 0.0000 -0.0000
vn 1.0000 0.0000 -0.0000
vn 1.0000 0.0000 -0.0000
vn 1.0000 0.0000 -0.0000
vn 0.0000 -1.0000 -0.0000
vn 0.0000 -1.0000 -0.0000
vn 0.0000 -1.0000 -0.0000
vn 0.0000 -1.0000 -0.0000
vn 0.0000 0.0000 -1.0000
vn 0.0000 0.0000 -1.0000
vn 0.0000 0.0000 -1.0000
vn 0.0000 0.0000 -1.0000
vn 0.0000 1.0000 0.0000
vn 0.0000 1.0000 -0.0000
vn 0.0000 1.0000 -0.0000
vn 0.0000 1.0000 0.0000
vn 0.0000 0.0000 -1.0000
vn 0.0000 0.0000 -1.0000
vn 0.0000 0.0000 -1.0000
vn 0.0000 0.0000 -1.0000
vn 0.0000 0.0000 -1.0000
vn 0.0000 0.0000 -1.0000
vn 0.0000 0.0000 -1.0000
vn 0.0000 0.0000 -1.0000
vn 0.0000 0.0000 -1.0000
vn 0.0000 0.0000 -1.0000
vn 0.0000 0.0000 -1.0000
vn 0.0000 0.0000 -1.0000
vn 0.0000 0.0000 -1.0000
vn 0.0000 0.0000 -1.0000
vn 0.0000 0.0000 -1.0000
vn 0.0000 0.0000 -1.0000
vn 0.0000 0.0000 -1.0000
vn 0.0000 0.0000 -1.0000
vn 0.0000 1.0000 -0.0000
vn 0.0000 1.0000 -0.0000
vn 0.0000 1.0000 -0.0000
vn 0.0000 1.0000 -0.0000
vn 0.0000 -1.0000 -0.0000
vn 0.0000 -1.0000 -0.0000
vn 0.0000 -1.0000 -0.0000
vn 0.0000 -1.0000 -0.0000
vn 0.0000 -1.0000 -0.0000
vn 0.0000 -1.0000 -0.0000
vn 0.0000 -1.0000 -0.0000
vn 0.0000 -1.0000 -0.0000
vn 0.0000 1.0000 -0.0000
vn 0.0000 1.0000 -0.0000
vn 0.0000 1.0000 -0.0000
vn 0.0000 1.0000 -0.0000
vn 0.0000 0.0000 -1.0000
vn 0.0000 0.0000 -1.0000
vn 0.0000 0.0000 -1.0000
vn 0.0000 0.0000 -1.0000
vn -1.0000 0.0000 -0.0000
vn -1.0000 0.0000 -0.0000
vn -1.0000 0.0000 -0.0000
vn -1.0000 0.0000 -0.0000
vn 0.0000 -1.0000 -0.0000
vn 0.0000 -1.0000 -0.0000
vn 0.0000 -1.0000 -0.0000
vn 0.0000 -1.0000 -0.0000
vn 0.0000 1.0000 -0.0000
vn 0.0000 1.0000 -0.0000
vn 0.0000 1.0000 -0.0000
vn 0.0000 1.0000 -0.0000
vn 0.0000 0.0000 -1.0000
vn 0.0000 0.0000 -1.0000
vn 0.0000 0.0000 -1.0000
vn 0.0000 0.0000 -1.0000
vn 1.0000 0.0000 -0.0000
vn 1.0000 0.0000 -0.0000
vn 1.0000 0.0000 -0.0000
vn 1.0000 0.0000 -0.0000
vn 0.0000 1.0000 -0.0000
vn 0.0000 1.0000 -0.0000
vn 0.0000 1.0000 -0.0000
vn 0.0000 1.0000 -0.0000
vn 0.0000 0.0000 -1.0000
vn 0.0000 0.0000 -1.0000
vn 0.0000 0.0000 -1.0000
vn 0.0000 0.0000 -1.0000
vn -1.0000 0.0000 -0.0000
vn -1.0000 0.0000 -0.0000
vn -1.0000 0.0000 -0.0000
vn -1.0000 0.0000 -0.0000
vn 0.0000 1.0000 -0.0000
vn 0.0000 1.0000 -0.0000
vn 0.0000 1.0000 -0.0000
vn 0.0000 1.0000 -0.0000
vn 0.0000 0.0000 -1.0000
vn 0.0000 0.0000 -1.0000
vn 0.0000 0.0000 -1.0000
vn 0.0000 0.0000 -1.0000
vn 1.0000 0.0000 -0.0000
vn 1.0000 0.0000 -0.0000
vn 1.0000 0.0000 -0.0000
vn 1.0000 0.0000 -0.0000
vn 0.0000 0.0000 -1.0000
vn 0.0000 0.0000 -1.0000
vn 0.0000 0.0000 -1.0000
vn 0.0000 0.0000 -1.0000
vn 1.0000 0.0000 -0.0000
vn 1.0000 0.0000 -0.0000
vn 1.0000 0.0000 -0.0000
vn 1.0000 0.0000 -0.0000
vn -1.0000 0.0000 -0.0000
vn -1.0000 0.0000 -0.0000
vn -1.0000 0.0000 -0.0000
vn -1.0000 0.0000 -0.0000
vn 0.0000 0.0000 -1.0000
vn 0.0000 0.0000 -1.0000
vn 0.0000 0.0000 -1.0000
vn 0.0000 0.0000 -1.0000
vn -1.0000 0.0000 -0.0000
vn -1.0000 0.0000 -0.0000
vn -1.0000 0.0000 -0.0000
vn -1.0000 0.0000 -0.0000
vn 1.0000 0.0000 -0.0000
vn 1.0000 0.0000 -0.0000
vn 1.0000 0.0000 -0.0000
vn 1.0000 0.0000 -0.0000
vn 0.0000 0.0000 -1.0000
vn 0.0000 0.0000 -1.0000
vn 0.0000 0.0000 -1.0000
vn 0.0000 0.0000 -1.0000
vn 1.0000 0.0000 -0.0000
vn 1.0000 0.0000 -0.0000
vn 1.0000 0.0000 -0.0000
vn 1.0000 0.0000 -0.0000
vn 0.0000 0.0000 -1.0000
vn 0.0000 0.0000 -1.0000
vn 0.0000 0.0000 -1.0000
vn 0.0000 0.0000 -1.0000
vn 0.0000 0.0000 -1.0000
vn 0.0000 0.0000 -1.0000
vn 0.0000 0.0000 -1.0000
vn 0.0000 0.0000 -1.0000
vn 0.0000 0.0000 -1.0000
vn 0.0000 0.0000 -1.0000
vn 0.0000 0.0000 -1.0000
vn 0.0000 0.0000 -1.0000
vn 0.0000 0.0000 -1.0000
vn 0.0000 0.0000 -1.0000
vn 0.0000 0.0000 -1.0000
vn 0.0000 0.0000 -1.0000
vn 0.0000 1.0000 -0.0000
vn 0.0000 1.0000 -0.0000
vn 0.0000 1.0000 -0.0000
vn 0.0000 1.0000 -0.0000
vn -1.0000 0.0000 -0.0000
vn -1.0000 0.0000 -0.0000
vn -1.0000 0.0000 -0.0000
vn -1.0000 0.0000 -0.0000
vn 0.0000 -1.0000 -0.0000
vn 0.0000 -1.0000 -0.0000
vn 0.0000 -1.0000 -0.0000
vn 0.0000 -1.0000 -0.0000
vn 1.0000 0.0000 -0.0000
vn 1.0000 0.0000 -0.0000
vn 1.0000 0.0000 -0.0000
vn 1.0000 0.0000 -0.0000
vn -1.0000 0.0000 -0.0000
vn -1.0000 0.0000 -0.0000
vn -1.0000 0.0000 -0.0000
vn -1.0000 0.0000 -0.0000
vn 0.0000 0.0000 -1.0000
vn 0.0000 0.0000 -1.0000
vn 0.0000 0.0000 -1.0000
vn 0.0000 0.0000 -1.0000
vn 0.0000 0.0000 -1.0000
vn 0.0000 0.0000 -1.0000
vn 0.0000 0.0000 -1.0000
vn 0.0000 0.0000 -1.0000
vn -1.0000 0.0000 -0.0000
vn -1.0000 0.0000 -0.0000
vn -1.0000 0.0000 -0.0000
vn -1.0000 0.0000 -0.0000
vn 0.0000 0.0000 -1.0000
vn 0.0000 0.0000 -1.0000
vn 0.0000 0.0000 -1.0000
vn 0.0000 0.0000 -1.0000
vn 1.0000 0.0000 -0.0000
vn 1.0000 0.0000 -0.0000
vn 1.0000 0.0000 -0.0000
vn 1.0000 0.0000 -0.0000
vn 0.0000 0.0000 -1.0000
vn 0.0000 0.0000 -1.0000
vn 0.0000 0.0000 -1.0000
vn 0.0000 0.0000 -1.0000
vn 0.0000 0.0000 -1.0000
vn 0.0000 0.0000 -1.0000
vn 0.0000 0.0000 -1.0000
vn 0.0000 0.0000 -1.0000
vn 0.0000 0.0000 -1.0000
vn 0.0000 0.0000 -1.0000
vn 0.0000 0.0000 -1.0000
vn 0.0000 0.0000 -1.0000
vn 0.0000 0.0000 -1.0000
vn 0.0000 0.0000 -1.0000
vn 0.0000 0.0000 -1.0000
vn 0.0000 0.0000 -1.0000
vn 0.0000 0.0000 -1.0000
vn 0.0000 0.0000 -1.0000
vn 0.0000 0.0000 -1.0000
vn 0.0000 0.0000 -1.0000
vn 0.0000 0.0000 -1.0000
vn 0.0000 0.0000 -1.0000
vn 0.0000 0.0000 -1.0000
vn 0.0000 0.0000 -1.0000
vn 0.0000 1.0000 -0.0000
vn 0.0000 1.0000 -0.0000
vn 0.0000 1.0000 -0.0000
vn 0.0000 1.0000 -0.0000
vn -1.0000 0.0000 -0.0000
vn -1.0000 0.0000 -0.0000
vn -1.0000 0.0000 -0.0000
vn -1.0000 0.0000 -0.0000
vn 0.0000 -1.0000 -0.0000
vn 0.0000 -1.0000 -0.0000
vn 0.0000 -1.0000 -0.0000
vn 0.0000 -1.0000 -0.0000
vn 1.0000 0.0000 -0.0000
vn 1.0000 0.0000 -0.0000
vn 1.0000 0.0000 -0.0000
vn 1.0000 0.0000 -0.0000
vn 0.0000 0.0000 -1.0000
vn 0.0000 0.0000 -1.0000
vn 0.0000 0.0000 -1.0000
vn 0.0000 0.0000 -1.0000
vn 0.0000 0.0000 -1.0000
vn 0.0000 0.0000 -1.0000
vn 0.0000 0.0000 -1.0000
vn 0.0000 0.0000 -1.0000
vn 0.0000 0.0000 -1.0000
vn 0.0000 0.0000 -1.0000
vn 0.0000 0.0000 -1.0000
vn 0.0000 0.0000 -1.0000
vn 0.0000 0.0000 -1.0000
vn 0.0000 0.0000 -1.0000
vn 0.0000 0.0000 -1.0000
vn 0.0000 0.0000 -1.0000
vn 0.0000 0.0000 -1.0000
vn 0.0000 0.0000 -1.0000
vn 0.0000 0.0000 -1.0000
vn 0.0000 0.0000 -1.0000
vn 0.0000 1.0000 -0.0000
vn 0.0000 1.0000 -0.0000
vn 0.0000 1.0000 -0.0000
vn 0.0000 1.0000 -0.0000
vn -1.0000 0.0000 -0.0000
vn -1.0000 0.0000 -0.0000
vn -1.0000 0.0000 -0.0000
vn -1.0000 0.0000 -0.0000
vn 0.0000 -1.0000 -0.0000
vn 0.0000 -1.0000 -0.0000
vn 0.0000 -1.0000 -0.0000
vn 0.0000 -1.0000 -0.0000
vn 1.0000 0.0000 -0.0000
vn 1.0000 0.0000 -0.0000
vn 1.0000 0.0000 -0.0000
vn 1.0000 0.0000 -0.0000
vn 1.0000 0.0000 -0.0000
vn 1.0000 0.0000 -0.0000
vn 1.0000 0.0000 -0.0000
vn 1.0000 0.0000 -0.0000
vn -1.0000 0.0000 -0.0000
vn -1.0000 0.0000 -0.0000
vn -1.0000 0.0000 -0.0000
vn -1.0000 0.0000 -0.0000
vn 1.0000 0.0000 -0.0000
vn 1.0000 0.0000 -0.0000
vn 1.0000 0.0000 -0.0000
vn 1.0000 0.0000 -0.0000
vn -1.0000 0.0000 -0.0000
vn -1.0000 0.0000 -0.0000
vn -1.0000 0.0000 -0.0000
vn -1.0000 0.0000 -0.0000
vn 0.0000 0.0000 -1.0000
vn 0.0000 0.0000 -1.0000
vn 0.0000 0.0000 -1.0000
vn 0.0000 0.0000 -1.0000
vn 0.0000 0.0000 -1.0000
vn 0.0000 0.0000 -1.0000
vn 0.0000 0.0000 -1.0000
vn 0.0000 0.0000 -1.0000
vn 0.0000 0.0000 -1.0000
vn 0.0000 0.0000 -1.0000
vn 0.0000 0.0000 -1.0000
vn 0.0000 0.0000 -1.0000
vn 0.0000 0.0000 -1.0000
vn 0.0000 0.0000 -1.0000
vn 0.0000 0.0000 -1.0000
vn 0.0000 0.0000 -1.0000
vn 0.0000 0.0000 -1.0000
vn 0.0000 0.0000 -1.0000
vn 0.0000 0.0000 -1.0000
vn 0.0000 0.0000 -1.0000
vn 0.0000 1.0000 -0.0000
vn 0.0000 1.0000 -0.0000
vn 0.0000 1.0000 -0.0000
vn 0.0000 1.0000 -0.0000
vn -1.0000 0.0000 -0.0000
vn -1.0000 0.0000 -0.0000
vn -1.0000 0.0000 -0.0000
vn -1.0000 0.0000 -0.0000
vn 0.0000 -1.0000 -0.0000
vn 0.0000 -1.0000 -0.0000
vn 0.0000 -1.0000 -0.0000
vn 0.0000 -1.0000 -0.0000
vn 1.0000 0.0000 -0.0000
vn 1.0000 0.0000 -0.0000
vn 1.0000 0.0000 -0.0000
vn 1.0000 0.0000 -0.0000
vn 0.0000 0.0000 -1.0000
vn 0.0000 0.0000 -1.0000
vn 0.0000 0.0000 -1.0000
vn 0.0000 0.0000 -1.0000
vn 0.0000 0.0000 -1.0000
vn 0.0000 0.0000 -1.0000
vn 0.0000 0.0000 -1.0000
vn 0.0000 0.0000 -1.0000
vn 0.0000 0.0000 -1.0000
vn 0.0000 0.0000 -1.0000
vn 0.0000 0.0000 -1.0000
vn 0.0000 0.0000 -1.0000
vn 0.0000 0.0000 -1.0000
vn 0.0000 0.0000 -1.0000
vn 0.0000 0.0000 -1.0000
vn 0.0000 0.0000 -1.0000
vn 0.0000 0.0000 -1.0000
vn 0.0000 0.0000 -1.0000
vn 0.0000 0.0000 -1.0000
vn 0.0000 0.0000 -1.0000
vn 0.0000 1.0000 -0.0000
vn 0.0000 1.0000 -0.0000
vn 0.0000 1.0000 -0.0000
vn 0.0000 1.0000 -0.0000
vn -1.0000 0.0000 -0.0000
vn -1.0000 0.0000 -0.0000
vn -1.0000 0.0000 -0.0000
vn -1.0000 0.0000 -0.0000
vn 0.0000 -1.0000 -0.0000
vn 0.0000 -1.0000 -0.0000
vn 0.0000 -1.0000 -0.0000
vn 0.0000 -1.0000 -0.0000
vn 1.0000 0.0000 -0.0000
vn 1.0000 0.0000 -0.0000
vn 1.0000 0.0000 -0.0000
vn 1.0000 0.0000 -0.0000
vn 1.0000 0.0000 -0.0000
vn 1.0000 0.0000 -0.0000
vn 1.0000 0.0000 -0.0000
vn 1.0000 0.0000 -0.0000
vn -1.0000 0.0000 -0.0000
vn -1.0000 0.0000 -0.0000
vn -1.0000 0.0000 0.0000
vn -1.0000 0.0000 -0.0000
vn 1.0000 0.0000 -0.0000
vn 1.0000 0.0000 -0.0000
vn 1.0000 0.0000 -0.0000
vn 1.0000 0.0000 -0.0000
vn -1.0000 0.0000 -0.0000
vn -1.0000 0.0000 -0.0000
vn -1.0000 0.0000 -0.0000
vn -1.0000 0.0000 -0.0000
vn 0.0000 1.0000 -0.0000
vn 0.0000 1.0000 -0.0000
vn 0.0000 1.0000 -0.0000
vn 0.0000 1.0000 -0.0000
vn 0.0000 0.0000 -1.0000
vn 0.0000 0.0000 -1.0000
vn 0.0000 0.0000 -1.0000
vn 0.0000 0.0000 -1.0000
vn 1.0000 0.0000 -0.0000
vn 1.0000 0.0000 -0.0000
vn 1.0000 0.0000 -0.0000
vn 1.0000 0.0000 -0.0000
vn -1.0000 0.0000 0.0000
vn -1.0000 0.0000 -0.0000
vn -1.0000 0.0000 -0.0000
vn -1.0000 0.0000 0.0000
vn 0.0000 -1.0000 -0.0000
vn 0.0000 -1.0000 -0.0000
vn 0.0000 -1.0000 -0.0000
vn 0.0000 -1.0000 -0.0000
vn 0.0000 0.0000 -1.0000
vn 0.0000 0.0000 -1.0000
vn 0.0000 0.0000 -1.0000
vn 0.0000 0.0000 -1.0000
vn 0.0000 -1.0000 -0.0000
vn 0.0000 -1.0000 -0.0000
vn 0.0000 -1.0000 -0.0000
vn 0.0000 -1.0000 -0.0000
vn 0.0000 0.0000 -1.0000
vn 0.0000 0.0000 -1.0000
vn 0.0000 0.0000 -1.0000
vn 0.0000 0.0000 -1.0000
vn 0.0000 1.0000 -0.0000
vn 0.0000 1.0000 -0.0000
vn 0.0000 1.0000 -0.0000
vn 0.0000 1.0000 -0.0000
vn 0.0000 0.0000 -1.0000
vn 0.0000 0.0000 -1.0000
vn 0.0000 0.0000 -1.0000
vn 0.0000 0.0000 -1.0000
vn 1.0000 0.0000 -0.0000
vn 1.0000 0.0000 -0.0000
vn 1.0000 0.0000 -0.0000
vn 1.0000 0.0000 -0.0000
vn -1.0000 0.0000 -0.0000
vn -1.0000 0.0000 -0.0000
vn -1.0000 0.0000 -0.0000
vn -1.0000 0.0000 -0.0000
vn -1.0000 0.0000 -0.0000
vn -1.0000 0.0000 -0.0000
vn -1.0000 0.0000 -0.0000
vn -1.0000 0.0000 -0.0000
vn 1.0000 0.0000 -0.0000
vn 1.0000 0.0000 -0.0000
vn 1.0000 0.0000 -0.0000
vn 1.0000 0.0000 -0.0000
vn -1.0000 0.0000 -0.0000
vn -1.0000 0.0000 -0.0000
vn -1.0000 0.0000 -0.0000
vn -1.0000 0.0000 -0.0000
vn 1.0000 0.0000 -0.0000
vn 1.0000 0.0000 -0.0000
vn 1.0000 0.0000 -0.0000
vn 1.0000 0.0000 -0.0000
vn 0.0000 0.0000 -1.0000
vn 0.0000 0.0000 -1.0000
vn 0.0000 0.0000 -1.0000
vn 0.0000 0.0000 -1.0000
vn -1.0000 0.0000 -0.0000
vn -1.0000 0.0000 -0.0000
vn -1.0000 0.0000 -0.0000
vn -1.0000 0.0000 -0.0000
vn 0.0000 0.0000 -1.0000
vn 0.0000 0.0000 -1.0000
vn 0.0000 0.0000 -1.0000
vn 0.0000 0.0000 -1.0000
vn 0.0000 0.0000 -1.0000
vn 0.0000 0.0000 -1.0000
vn 0.0000 0.0000 -1.0000
vn 0.0000 0.0000 -1.0000
vn 0.0000 0.0000 -1.0000
vn 0.0000 0.0000 -1.0000
vn 0.0000 0.0000 -1.0000
vn 0.0000 0.0000 -1.0000
vn 0.0000 0.0000 -1.0000
vn 0.0000 0.0000 -1.0000
vn 0.0000 0.0000 -1.0000
vn 0.0000 0.0000 -1.0000
vn 0.0000 1.0000 -0.0000
vn 0.0000 1.0000 -0.0000
vn 0.0000 1.0000 -0.0000
vn 0.0000 1.0000 -0.0000
vn 1.0000 0.0000 -0.0000
vn 1.0000 0.0000 -0.0000
vn 1.0000 0.0000 -0.0000
vn 1.0000 0.0000 -0.0000
vn 0.0000 -1.0000 -0.0000
vn 0.0000 -1.0000 -0.0000
vn 0.0000 -1.0000 -0.0000
vn 0.0000 -1.0000 -0.0000
vn -1.0000 0.0000 -0.0000
vn -1.0000 0.0000 -0.0000
vn -1.0000 0.0000 -0.0000
vn -1.0000 0.0000 -0.0000
vn 1.0000 0.0000 -0.0000
vn 1.0000 0.0000 -0.0000
vn 1.0000 0.0000 -0.0000
vn 1.0000 0.0000 -0.0000
# 940 vertex normals

vt 0.2813 0.2179 0.0000
vt 0.8212 0.2179 0.0000
vt 0.8212 0.2475 0.0000
vt 0.2813 0.2475 0.0000
vt 0.2813 0.3806 0.0000
vt 0.8212 0.3806 0.0000
vt 0.8212 0.4312 0.0000
vt 0.2813 0.4312 0.0000
vt 0.2813 0.2972 0.0000
vt 0.2813 0.2550 0.0000
vt 0.8212 0.2550 0.0000
vt 0.8212 0.2972 0.0000
vt 0.0100 0.5329 0.0000
vt 0.0100 0.4488 0.0000
vt 0.1112 0.4488 0.0000
vt 0.1112 0.4404 0.0000
vt 0.4487 0.4404 0.0000
vt 0.4487 0.4488 0.0000
vt 0.5499 0.4488 0.0000
vt 0.5499 0.5329 0.0000
vt 0.8356 0.9900 0.0000
vt 0.8018 0.9900 0.0000
vt 0.8018 0.6525 0.0000
vt 0.8356 0.6525 0.0000
vt 0.2470 0.3458 0.0000
vt 0.2470 0.3374 0.0000
vt 0.5844 0.3374 0.0000
vt 0.5844 0.3458 0.0000
vt 0.6505 0.3729 0.0000
vt 0.6505 0.3518 0.0000
vt 0.9879 0.3518 0.0000
vt 0.9879 0.3729 0.0000
vt 0.8109 0.0769 0.0000
vt 0.8109 0.0347 0.0000
vt 0.9121 0.0347 0.0000
vt 0.9121 0.0769 0.0000
vt 0.5923 0.0368 0.0000
vt 0.6935 0.0368 0.0000
vt 0.6935 0.0789 0.0000
vt 0.5923 0.0789 0.0000
vt 0.9035 0.5947 0.0000
vt 0.8023 0.5947 0.0000
vt 0.8023 0.5441 0.0000
vt 0.9035 0.5441 0.0000
vt 0.9272 0.1014 0.0000
vt 0.9694 0.1014 0.0000
vt 0.9694 0.1521 0.0000
vt 0.9272 0.1521 0.0000
vt 0.9756 0.7035 0.0000
vt 0.9756 0.8047 0.0000
vt 0.9334 0.8047 0.0000
vt 0.9334 0.7035 0.0000
vt 0.8291 0.4434 0.0000
vt 0.8291 0.4012 0.0000
vt 0.9303 0.4012 0.0000
vt 0.9303 0.4434 0.0000
vt 0.8188 0.1521 0.0000
vt 0.8188 0.1014 0.0000
vt 0.9200 0.1014 0.0000
vt 0.9200 0.1521 0.0000
vt 0.1900 0.3909 0.0000
vt 0.2406 0.3909 0.0000
vt 0.2406 0.4331 0.0000
vt 0.1900 0.4331 0.0000
vt 0.7014 0.0347 0.0000
vt 0.8026 0.0347 0.0000
vt 0.8026 0.0769 0.0000
vt 0.7014 0.0769 0.0000
vt 0.4070 0.0679 0.0000
vt 0.5082 0.0679 0.0000
vt 0.5082 0.1356 0.0000
vt 0.4070 0.1356 0.0000
vt 0.9879 0.0337 0.0000
vt 0.9879 0.0759 0.0000
vt 0.9202 0.0759 0.0000
vt 0.9202 0.0337 0.0000
vt 0.9334 0.8126 0.0000
vt 0.9756 0.8126 0.0000
vt 0.9756 0.9138 0.0000
vt 0.9334 0.9138 0.0000
vt 0.9612 0.9223 0.0000
vt 0.9612 0.9900 0.0000
vt 0.8599 0.9900 0.0000
vt 0.8599 0.9223 0.0000
vt 0.9735 0.2684 0.0000
vt 0.9058 0.2684 0.0000
vt 0.9058 0.2262 0.0000
vt 0.9735 0.2262 0.0000
vt 0.1894 0.2282 0.0000
vt 0.2735 0.2282 0.0000
vt 0.2735 0.2957 0.0000
vt 0.1894 0.2957 0.0000
vt 0.3065 0.9656 0.0000
vt 0.2223 0.9656 0.0000
vt 0.2223 0.9529 0.0000
vt 0.3065 0.9529 0.0000
vt 0.1297 0.9529 0.0000
vt 0.2138 0.9529 0.0000
vt 0.2138 0.9656 0.0000
vt 0.1297 0.9656 0.0000
vt 0.8299 0.2182 0.0000
vt 0.8974 0.2182 0.0000
vt 0.8974 0.3024 0.0000
vt 0.8299 0.3024 0.0000
vt 0.1297 0.7371 0.0000
vt 0.1297 0.7244 0.0000
vt 0.2138 0.7244 0.0000
vt 0.2138 0.7371 0.0000
vt 0.2223 0.7371 0.0000
vt 0.2223 0.7244 0.0000
vt 0.3065 0.7244 0.0000
vt 0.3065 0.7371 0.0000
vt 0.5834 0.1768 0.0000
vt 0.9715 0.1768 0.0000
vt 0.9715 0.2105 0.0000
vt 0.5834 0.2105 0.0000
vt 0.5579 0.4835 0.0000
vt 0.9797 0.4835 0.0000
vt 0.9797 0.5088 0.0000
vt 0.5579 0.5088 0.0000
vt 0.2371 0.3213 0.0000
vt 0.2371 0.3550 0.0000
vt 0.2202 0.3719 0.0000
vt 0.2202 0.3044 0.0000
vt 0.6421 0.3044 0.0000
vt 0.6252 0.3213 0.0000
vt 0.6252 0.3550 0.0000
vt 0.6421 0.3719 0.0000
vt 0.1889 0.3835 0.0000
vt 0.1889 0.3497 0.0000
vt 0.1974 0.3497 0.0000
vt 0.1974 0.3835 0.0000
vt 0.2046 0.1523 0.0000
vt 0.2046 0.1438 0.0000
vt 0.5926 0.1438 0.0000
vt 0.5926 0.1523 0.0000
vt 0.4465 0.7370 0.0000
vt 0.4127 0.7370 0.0000
vt 0.4127 0.7285 0.0000
vt 0.4465 0.7285 0.0000
vt 0.5772 0.1687 0.0000
vt 0.1891 0.1687 0.0000
vt 0.1891 0.1603 0.0000
vt 0.5772 0.1603 0.0000
vt 0.9797 0.4506 0.0000
vt 0.9797 0.4759 0.0000
vt 0.5579 0.4759 0.0000
vt 0.5579 0.4506 0.0000
vt 0.0368 0.4401 0.0000
vt 0.0199 0.4401 0.0000
vt 0.0199 0.0182 0.0000
vt 0.0368 0.0182 0.0000
vt 0.0615 0.4401 0.0000
vt 0.0446 0.4401 0.0000
vt 0.0446 0.0182 0.0000
vt 0.0615 0.0182 0.0000
vt 0.0704 0.0182 0.0000
vt 0.0924 0.0182 0.0000
vt 0.0924 0.4401 0.0000
vt 0.0704 0.4401 0.0000
vt 0.1002 0.0100 0.0000
vt 0.1171 0.0100 0.0000
vt 0.1171 0.4318 0.0000
vt 0.1002 0.4318 0.0000
vt 0.1589 0.0100 0.0000
vt 0.1809 0.0100 0.0000
vt 0.1809 0.4318 0.0000
vt 0.1589 0.4318 0.0000
vt 0.5579 0.5333 0.0000
vt 0.5579 0.5165 0.0000
vt 0.9797 0.5165 0.0000
vt 0.9797 0.5333 0.0000
vt 0.8932 0.6729 0.0000
vt 0.8932 0.8823 0.0000
vt 0.8595 0.8823 0.0000
vt 0.8595 0.6729 0.0000
vt 0.3475 0.9900 0.0000
vt 0.3475 0.9225 0.0000
vt 0.3643 0.9394 0.0000
vt 0.3643 0.9731 0.0000
vt 0.5737 0.9394 0.0000
vt 0.5906 0.9225 0.0000
vt 0.5906 0.9900 0.0000
vt 0.5737 0.9731 0.0000
vt 0.4876 0.7370 0.0000
vt 0.4539 0.7370 0.0000
vt 0.4539 0.7285 0.0000
vt 0.4876 0.7285 0.0000
vt 0.7265 0.9653 0.0000
vt 0.7180 0.9653 0.0000
vt 0.7180 0.7559 0.0000
vt 0.7265 0.7559 0.0000
vt 0.4465 0.9655 0.0000
vt 0.4127 0.9655 0.0000
vt 0.4127 0.9571 0.0000
vt 0.4465 0.9571 0.0000
vt 0.7353 0.0841 0.0000
vt 0.9447 0.0841 0.0000
vt 0.9447 0.0926 0.0000
vt 0.7353 0.0926 0.0000
vt 0.8603 0.3435 0.0000
vt 0.6509 0.3435 0.0000
vt 0.6509 0.3098 0.0000
vt 0.8603 0.3098 0.0000
vt 0.1044 0.9900 0.0000
vt 0.1044 0.9225 0.0000
vt 0.1212 0.9394 0.0000
vt 0.1212 0.9731 0.0000
vt 0.3306 0.9394 0.0000
vt 0.3306 0.9731 0.0000
vt 0.2571 0.3991 0.0000
vt 0.2571 0.4329 0.0000
vt 0.2486 0.4329 0.0000
vt 0.2486 0.3991 0.0000
vt 0.7265 0.1026 0.0000
vt 0.7265 0.1111 0.0000
vt 0.5171 0.1111 0.0000
vt 0.5171 0.1026 0.0000
vt 0.4053 0.9655 0.0000
vt 0.3715 0.9655 0.0000
vt 0.3715 0.9571 0.0000
vt 0.4053 0.9571 0.0000
vt 0.9097 0.7045 0.0000
vt 0.9097 0.9138 0.0000
vt 0.9013 0.9138 0.0000
vt 0.9013 0.7045 0.0000
vt 0.5906 0.9138 0.0000
vt 0.3475 0.9138 0.0000
vt 0.3475 0.8463 0.0000
vt 0.5906 0.8463 0.0000
vt 0.3475 0.8376 0.0000
vt 0.1044 0.8376 0.0000
vt 0.1044 0.7702 0.0000
vt 0.3475 0.7702 0.0000
vt 0.1044 0.9138 0.0000
vt 0.1044 0.8463 0.0000
vt 0.5906 0.8376 0.0000
vt 0.5906 0.7702 0.0000
vt 0.6015 0.1191 0.0000
vt 0.8109 0.1191 0.0000
vt 0.8109 0.1529 0.0000
vt 0.6015 0.1529 0.0000
vt 0.3475 0.6940 0.0000
vt 0.3475 0.7615 0.0000
vt 0.3306 0.7446 0.0000
vt 0.3306 0.7109 0.0000
vt 0.1212 0.7446 0.0000
vt 0.1044 0.7615 0.0000
vt 0.1044 0.6940 0.0000
vt 0.1212 0.7108 0.0000
vt 0.2118 0.3106 0.0000
vt 0.2118 0.3443 0.0000
vt 0.2033 0.3443 0.0000
vt 0.2033 0.3106 0.0000
vt 0.3991 0.0862 0.0000
vt 0.3991 0.0946 0.0000
vt 0.1898 0.0946 0.0000
vt 0.1898 0.0862 0.0000
vt 0.4053 0.7370 0.0000
vt 0.3715 0.7370 0.0000
vt 0.3715 0.7285 0.0000
vt 0.4053 0.7285 0.0000
vt 0.5165 0.0862 0.0000
vt 0.7258 0.0862 0.0000
vt 0.7258 0.0946 0.0000
vt 0.5165 0.0946 0.0000
vt 0.1898 0.1026 0.0000
vt 0.3991 0.1026 0.0000
vt 0.3991 0.1364 0.0000
vt 0.1898 0.1364 0.0000
vt 0.5906 0.6940 0.0000
vt 0.5906 0.7615 0.0000
vt 0.5737 0.7446 0.0000
vt 0.5737 0.7108 0.0000
vt 0.3643 0.7446 0.0000
vt 0.3643 0.7109 0.0000
vt 0.4876 0.9655 0.0000
vt 0.4539 0.9655 0.0000
vt 0.4539 0.9571 0.0000
vt 0.4876 0.9571 0.0000
vt 0.9262 0.9138 0.0000
vt 0.9177 0.9138 0.0000
vt 0.9177 0.7045 0.0000
vt 0.9262 0.7045 0.0000
vt 0.5288 0.9655 0.0000
vt 0.4951 0.9655 0.0000
vt 0.4951 0.9571 0.0000
vt 0.5288 0.9571 0.0000
vt 0.1898 0.0697 0.0000
vt 0.3991 0.0697 0.0000
vt 0.3991 0.0781 0.0000
vt 0.1898 0.0781 0.0000
vt 0.1043 0.6178 0.0000
vt 0.3475 0.6178 0.0000
vt 0.3475 0.6853 0.0000
vt 0.1043 0.6853 0.0000
vt 0.3475 0.5416 0.0000
vt 0.5906 0.5416 0.0000
vt 0.5906 0.6091 0.0000
vt 0.3475 0.6091 0.0000
vt 0.5906 0.6178 0.0000
vt 0.5906 0.6853 0.0000
vt 0.1043 0.5416 0.0000
vt 0.1043 0.6091 0.0000
vt 0.9797 0.5519 0.0000
vt 0.9797 0.6194 0.0000
vt 0.9122 0.6194 0.0000
vt 0.9122 0.5519 0.0000
vt 0.0100 0.7614 0.0000
vt 0.0100 0.6940 0.0000
vt 0.0100 0.6853 0.0000
vt 0.0100 0.6178 0.0000
vt 0.6849 0.5416 0.0000
vt 0.6849 0.6091 0.0000
vt 0.5169 0.0100 0.0000
vt 0.5844 0.0100 0.0000
vt 0.5844 0.0775 0.0000
vt 0.5169 0.0775 0.0000
vt 0.6849 0.7614 0.0000
vt 0.6849 0.6940 0.0000
vt 0.9694 0.6956 0.0000
vt 0.9019 0.6956 0.0000
vt 0.9019 0.6281 0.0000
vt 0.9694 0.6281 0.0000
vt 0.0100 0.9225 0.0000
vt 0.0100 0.9900 0.0000
vt 0.9735 0.2760 0.0000
vt 0.9735 0.3435 0.0000
vt 0.9060 0.3435 0.0000
vt 0.9060 0.2760 0.0000
vt 0.6849 0.9225 0.0000
vt 0.6849 0.9900 0.0000
vt 0.6849 0.8463 0.0000
vt 0.6849 0.9138 0.0000
vt 0.0100 0.8376 0.0000
vt 0.0100 0.7702 0.0000
vt 0.0100 0.5416 0.0000
vt 0.0100 0.6091 0.0000
vt 0.6849 0.6178 0.0000
vt 0.6849 0.6853 0.0000
vt 0.6849 0.8376 0.0000
vt 0.6849 0.7702 0.0000
vt 0.0100 0.9138 0.0000
vt 0.0100 0.8463 0.0000
vt 0.1891 0.2105 0.0000
vt 0.1891 0.1768 0.0000
vt 0.5772 0.1768 0.0000
vt 0.5772 0.2105 0.0000
vt 0.1500 0.4318 0.0000
vt 0.1247 0.4318 0.0000
vt 0.1247 0.0100 0.0000
vt 0.1500 0.0100 0.0000
vt 0.7441 0.9731 0.0000
vt 0.7610 0.9900 0.0000
vt 0.6935 0.9900 0.0000
vt 0.7104 0.9731 0.0000
vt 0.7441 0.5850 0.0000
vt 0.7610 0.5682 0.0000
vt 0.7104 0.5851 0.0000
vt 0.6935 0.5682 0.0000
vt 0.4951 0.7370 0.0000
vt 0.4951 0.7285 0.0000
vt 0.5288 0.7285 0.0000
vt 0.5288 0.7370 0.0000
vt 0.5834 0.1603 0.0000
vt 0.9715 0.1603 0.0000
vt 0.9715 0.1687 0.0000
vt 0.5834 0.1687 0.0000
vt 0.2651 0.3991 0.0000
vt 0.2735 0.3991 0.0000
vt 0.2735 0.4329 0.0000
vt 0.2651 0.4329 0.0000
vt 0.8436 0.6019 0.0000
vt 0.8521 0.6019 0.0000
vt 0.8521 0.9900 0.0000
vt 0.8436 0.9900 0.0000
vt 0.7697 0.9900 0.0000
vt 0.7697 0.5682 0.0000
vt 0.7950 0.5682 0.0000
vt 0.7950 0.9900 0.0000
vt 0.8212 0.2179 0.0000
vt 0.8212 0.2475 0.0000
vt 0.2813 0.2475 0.0000
vt 0.2813 0.2179 0.0000
vt 0.8212 0.3806 0.0000
vt 0.8212 0.4312 0.0000
vt 0.2813 0.4312 0.0000
vt 0.2813 0.3806 0.0000
vt 0.2813 0.2550 0.0000
vt 0.8212 0.2550 0.0000
vt 0.8212 0.2972 0.0000
vt 0.2813 0.2972 0.0000
vt 0.0100 0.5329 0.0000
vt 0.0100 0.4488 0.0000
vt 0.1112 0.4488 0.0000
vt 0.1112 0.4404 0.0000
vt 0.4487 0.4404 0.0000
vt 0.4487 0.4488 0.0000
vt 0.5499 0.4488 0.0000
vt 0.5499 0.5329 0.0000
vt 0.8018 0.9900 0.0000
vt 0.8018 0.6525 0.0000
vt 0.8356 0.6525 0.0000
vt 0.8356 0.9900 0.0000
vt 0.2470 0.3374 0.0000
vt 0.5844 0.3374 0.0000
vt 0.5844 0.3458 0.0000
vt 0.2470 0.3458 0.0000
vt 0.6505 0.3518 0.0000
vt 0.9879 0.3518 0.0000
vt 0.9879 0.3729 0.0000
vt 0.6505 0.3729 0.0000
vt 0.8109 0.0347 0.0000
vt 0.9121 0.0347 0.0000
vt 0.9121 0.0769 0.0000
vt 0.8109 0.0769 0.0000
vt 0.6935 0.0368 0.0000
vt 0.6935 0.0789 0.0000
vt 0.5923 0.0789 0.0000
vt 0.5923 0.0368 0.0000
vt 0.8023 0.5947 0.0000
vt 0.8023 0.5441 0.0000
vt 0.9035 0.5441 0.0000
vt 0.9035 0.5947 0.0000
vt 0.9694 0.1014 0.0000
vt 0.9694 0.1521 0.0000
vt 0.9272 0.1521 0.0000
vt 0.9272 0.1014 0.0000
vt 0.9756 0.8047 0.0000
vt 0.9334 0.8047 0.0000
vt 0.9334 0.7035 0.0000
vt 0.9756 0.7035 0.0000
vt 0.8291 0.4012 0.0000
vt 0.9303 0.4012 0.0000
vt 0.9303 0.4434 0.0000
vt 0.8291 0.4434 0.0000
vt 0.8188 0.1014 0.0000
vt 0.9200 0.1014 0.0000
vt 0.9200 0.1521 0.0000
vt 0.8188 0.1521 0.0000
vt 0.2406 0.3909 0.0000
vt 0.2406 0.4331 0.0000
vt 0.1900 0.4331 0.0000
vt 0.1900 0.3909 0.0000
vt 0.8026 0.0347 0.0000
vt 0.8026 0.0769 0.0000
vt 0.7014 0.0769 0.0000
vt 0.7014 0.0347 0.0000
vt 0.5082 0.0679 0.0000
vt 0.5082 0.1356 0.0000
vt 0.4070 0.1356 0.0000
vt 0.4070 0.0679 0.0000
vt 0.9879 0.0759 0.0000
vt 0.9202 0.0759 0.0000
vt 0.9202 0.0337 0.0000
vt 0.9879 0.0337 0.0000
vt 0.9756 0.8126 0.0000
vt 0.9756 0.9138 0.0000
vt 0.9334 0.9138 0.0000
vt 0.9334 0.8126 0.0000
vt 0.9612 0.9900 0.0000
vt 0.8599 0.9900 0.0000
vt 0.8599 0.9223 0.0000
vt 0.9612 0.9223 0.0000
vt 0.9058 0.2684 0.0000
vt 0.9058 0.2262 0.0000
vt 0.9735 0.2262 0.0000
vt 0.9735 0.2684 0.0000
vt 0.2735 0.2282 0.0000
vt 0.2735 0.2957 0.0000
vt 0.1894 0.2957 0.0000
vt 0.1894 0.2282 0.0000
vt 0.2223 0.9656 0.0000
vt 0.2223 0.9529 0.0000
vt 0.3065 0.9529 0.0000
vt 0.3065 0.9656 0.0000
vt 0.2138 0.9529 0.0000
vt 0.2138 0.9656 0.0000
vt 0.1297 0.9656 0.0000
vt 0.1297 0.9529 0.0000
vt 0.8974 0.2182 0.0000
vt 0.8974 0.3024 0.0000
vt 0.8299 0.3024 0.0000
vt 0.8299 0.2182 0.0000
vt 0.1297 0.7244 0.0000
vt 0.2138 0.7244 0.0000
vt 0.2138 0.7371 0.0000
vt 0.1297 0.7371 0.0000
vt 0.2223 0.7244 0.0000
vt 0.3065 0.7244 0.0000
vt 0.3065 0.7371 0.0000
vt 0.2223 0.7371 0.0000
vt 0.9715 0.1768 0.0000
vt 0.9715 0.2105 0.0000
vt 0.5834 0.2105 0.0000
vt 0.5834 0.1768 0.0000
vt 0.9797 0.4835 0.0000
vt 0.9797 0.5088 0.0000
vt 0.5579 0.5088 0.0000
vt 0.5579 0.4835 0.0000
vt 0.2371 0.3550 0.0000
vt 0.2202 0.3719 0.0000
vt 0.2202 0.3044 0.0000
vt 0.2371 0.3213 0.0000
vt 0.6421 0.3044 0.0000
vt 0.6252 0.3213 0.0000
vt 0.6421 0.3719 0.0000
vt 0.6252 0.3550 0.0000
vt 0.1889 0.3497 0.0000
vt 0.1974 0.3497 0.0000
vt 0.1974 0.3835 0.0000
vt 0.1889 0.3835 0.0000
vt 0.2046 0.1438 0.0000
vt 0.5926 0.1438 0.0000
vt 0.5926 0.1523 0.0000
vt 0.2046 0.1523 0.0000
vt 0.4127 0.7370 0.0000
vt 0.4127 0.7285 0.0000
vt 0.4465 0.7285 0.0000
vt 0.4465 0.7370 0.0000
vt 0.1891 0.1687 0.0000
vt 0.1891 0.1603 0.0000
vt 0.5772 0.1603 0.0000
vt 0.5772 0.1687 0.0000
vt 0.9797 0.4759 0.0000
vt 0.5579 0.4759 0.0000
vt 0.5579 0.4506 0.0000
vt 0.9797 0.4506 0.0000
vt 0.0199 0.4401 0.0000
vt 0.0199 0.0182 0.0000
vt 0.0368 0.0182 0.0000
vt 0.0368 0.4401 0.0000
vt 0.0446 0.4401 0.0000
vt 0.0446 0.0182 0.0000
vt 0.0615 0.0182 0.0000
vt 0.0615 0.4401 0.0000
vt 0.0924 0.0182 0.0000
vt 0.0924 0.4401 0.0000
vt 0.0704 0.4401 0.0000
vt 0.0704 0.0182 0.0000
vt 0.1171 0.0100 0.0000
vt 0.1171 0.4318 0.0000
vt 0.1002 0.4318 0.0000
vt 0.1002 0.0100 0.0000
vt 0.1809 0.0100 0.0000
vt 0.1809 0.4318 0.0000
vt 0.1589 0.4318 0.0000
vt 0.1589 0.0100 0.0000
vt 0.5579 0.5165 0.0000
vt 0.9797 0.5165 0.0000
vt 0.9797 0.5333 0.0000
vt 0.5579 0.5333 0.0000
vt 0.8932 0.8823 0.0000
vt 0.8595 0.8823 0.0000
vt 0.8595 0.6729 0.0000
vt 0.8932 0.6729 0.0000
vt 0.3475 0.9225 0.0000
vt 0.3643 0.9394 0.0000
vt 0.3643 0.9731 0.0000
vt 0.3475 0.9900 0.0000
vt 0.5906 0.9225 0.0000
vt 0.5737 0.9394 0.0000
vt 0.5906 0.9900 0.0000
vt 0.5737 0.9731 0.0000
vt 0.4539 0.7370 0.0000
vt 0.4539 0.7285 0.0000
vt 0.4876 0.7285 0.0000
vt 0.4876 0.7370 0.0000
vt 0.7180 0.9653 0.0000
vt 0.7180 0.7559 0.0000
vt 0.7265 0.7559 0.0000
vt 0.7265 0.9653 0.0000
vt 0.4127 0.9655 0.0000
vt 0.4127 0.9571 0.0000
vt 0.4465 0.9571 0.0000
vt 0.4465 0.9655 0.0000
vt 0.9447 0.0841 0.0000
vt 0.9447 0.0926 0.0000
vt 0.7353 0.0926 0.0000
vt 0.7353 0.0841 0.0000
vt 0.6509 0.3435 0.0000
vt 0.6509 0.3098 0.0000
vt 0.8603 0.3098 0.0000
vt 0.8603 0.3435 0.0000
vt 0.1044 0.9225 0.0000
vt 0.1212 0.9394 0.0000
vt 0.1212 0.9731 0.0000
vt 0.1044 0.9900 0.0000
vt 0.3306 0.9394 0.0000
vt 0.3306 0.9731 0.0000
vt 0.2571 0.4329 0.0000
vt 0.2486 0.4329 0.0000
vt 0.2486 0.3991 0.0000
vt 0.2571 0.3991 0.0000
vt 0.7265 0.1111 0.0000
vt 0.5171 0.1111 0.0000
vt 0.5171 0.1026 0.0000
vt 0.7265 0.1026 0.0000
vt 0.3715 0.9655 0.0000
vt 0.3715 0.9571 0.0000
vt 0.4053 0.9571 0.0000
vt 0.4053 0.9655 0.0000
vt 0.9097 0.9138 0.0000
vt 0.9013 0.9138 0.0000
vt 0.9013 0.7045 0.0000
vt 0.9097 0.7045 0.0000
vt 0.3475 0.9138 0.0000
vt 0.3475 0.8463 0.0000
vt 0.5906 0.8463 0.0000
vt 0.5906 0.9138 0.0000
vt 0.1044 0.8376 0.0000
vt 0.1044 0.7702 0.0000
vt 0.3475 0.7702 0.0000
vt 0.3475 0.8376 0.0000
vt 0.1044 0.9138 0.0000
vt 0.1044 0.8463 0.0000
vt 0.5906 0.7702 0.0000
vt 0.5906 0.8376 0.0000
vt 0.8109 0.1191 0.0000
vt 0.8109 0.1529 0.0000
vt 0.6015 0.1529 0.0000
vt 0.6015 0.1191 0.0000
vt 0.3475 0.7615 0.0000
vt 0.3306 0.7446 0.0000
vt 0.3306 0.7109 0.0000
vt 0.3475 0.6940 0.0000
vt 0.1044 0.7615 0.0000
vt 0.1212 0.7446 0.0000
vt 0.1044 0.6940 0.0000
vt 0.1212 0.7108 0.0000
vt 0.2118 0.3443 0.0000
vt 0.2033 0.3443 0.0000
vt 0.2033 0.3106 0.0000
vt 0.2118 0.3106 0.0000
vt 0.3991 0.0946 0.0000
vt 0.1898 0.0946 0.0000
vt 0.1898 0.0862 0.0000
vt 0.3991 0.0862 0.0000
vt 0.3715 0.7370 0.0000
vt 0.3715 0.7285 0.0000
vt 0.4053 0.7285 0.0000
vt 0.4053 0.7370 0.0000
vt 0.7258 0.0862 0.0000
vt 0.7258 0.0946 0.0000
vt 0.5165 0.0946 0.0000
vt 0.5165 0.0862 0.0000
vt 0.3991 0.1026 0.0000
vt 0.3991 0.1364 0.0000
vt 0.1898 0.1364 0.0000
vt 0.1898 0.1026 0.0000
vt 0.5906 0.7615 0.0000
vt 0.5737 0.7446 0.0000
vt 0.5737 0.7108 0.0000
vt 0.5906 0.6940 0.0000
vt 0.3643 0.7446 0.0000
vt 0.3643 0.7109 0.0000
vt 0.4539 0.9655 0.0000
vt 0.4539 0.9571 0.0000
vt 0.4876 0.9571 0.0000
vt 0.4876 0.9655 0.0000
vt 0.9177 0.9138 0.0000
vt 0.9177 0.7045 0.0000
vt 0.9262 0.7045 0.0000
vt 0.9262 0.9138 0.0000
vt 0.4951 0.9655 0.0000
vt 0.4951 0.9571 0.0000
vt 0.5288 0.9571 0.0000
vt 0.5288 0.9655 0.0000
vt 0.3991 0.0697 0.0000
vt 0.3991 0.0781 0.0000
vt 0.1898 0.0781 0.0000
vt 0.1898 0.0697 0.0000
vt 0.3475 0.6178 0.0000
vt 0.3475 0.6853 0.0000
vt 0.1043 0.6853 0.0000
vt 0.1043 0.6178 0.0000
vt 0.5906 0.5416 0.0000
vt 0.5906 0.6091 0.0000
vt 0.3475 0.6091 0.0000
vt 0.3475 0.5416 0.0000
vt 0.5906 0.6178 0.0000
vt 0.5906 0.6853 0.0000
vt 0.1043 0.6091 0.0000
vt 0.1043 0.5416 0.0000
vt 0.9797 0.6194 0.0000
vt 0.9122 0.6194 0.0000
vt 0.9122 0.5519 0.0000
vt 0.9797 0.5519 0.0000
vt 0.0100 0.6940 0.0000
vt 0.0100 0.7614 0.0000
vt 0.0100 0.6853 0.0000
vt 0.0100 0.6178 0.0000
vt 0.6849 0.6091 0.0000
vt 0.6849 0.5416 0.0000
vt 0.5844 0.0100 0.0000
vt 0.5844 0.0775 0.0000
vt 0.5169 0.0775 0.0000
vt 0.5169 0.0100 0.0000
vt 0.6849 0.6940 0.0000
vt 0.6849 0.7614 0.0000
vt 0.9019 0.6956 0.0000
vt 0.9019 0.6281 0.0000
vt 0.9694 0.6281 0.0000
vt 0.9694 0.6956 0.0000
vt 0.0100 0.9900 0.0000
vt 0.0100 0.9225 0.0000
vt 0.9735 0.3435 0.0000
vt 0.9060 0.3435 0.0000
vt 0.9060 0.2760 0.0000
vt 0.9735 0.2760 0.0000
vt 0.6849 0.9900 0.0000
vt 0.6849 0.9225 0.0000
vt 0.6849 0.8463 0.0000
vt 0.6849 0.9138 0.0000
vt 0.0100 0.7702 0.0000
vt 0.0100 0.8376 0.0000
vt 0.0100 0.6091 0.0000
vt 0.0100 0.5416 0.0000
vt 0.6849 0.6178 0.0000
vt 0.6849 0.6853 0.0000
vt 0.6849 0.7702 0.0000
vt 0.6849 0.8376 0.0000
vt 0.0100 0.9138 0.0000
vt 0.0100 0.8463 0.0000
vt 0.1891 0.1768 0.0000
vt 0.5772 0.1768 0.0000
vt 0.5772 0.2105 0.0000
vt 0.1891 0.2105 0.0000
vt 0.1247 0.4318 0.0000
vt 0.1247 0.0100 0.0000
vt 0.1500 0.0100 0.0000
vt 0.1500 0.4318 0.0000
vt 0.7610 0.9900 0.0000
vt 0.6935 0.9900 0.0000
vt 0.7104 0.9731 0.0000
vt 0.7441 0.9731 0.0000
vt 0.7441 0.5850 0.0000
vt 0.7610 0.5682 0.0000
vt 0.6935 0.5682 0.0000
vt 0.7104 0.5851 0.0000
vt 0.4951 0.7285 0.0000
vt 0.5288 0.7285 0.0000
vt 0.5288 0.7370 0.0000
vt 0.4951 0.7370 0.0000
vt 0.9715 0.1603 0.0000
vt 0.9715 0.1687 0.0000
vt 0.5834 0.1687 0.0000
vt 0.5834 0.1603 0.0000
vt 0.2735 0.3991 0.0000
vt 0.2735 0.4329 0.0000
vt 0.2651 0.4329 0.0000
vt 0.2651 0.3991 0.0000
vt 0.8521 0.6019 0.0000
vt 0.8521 0.9900 0.0000
vt 0.8436 0.9900 0.0000
vt 0.8436 0.6019 0.0000
vt 0.7697 0.5682 0.0000
vt 0.7950 0.5682 0.0000
vt 0.7950 0.9900 0.0000
vt 0.7697 0.9900 0.0000
# 760 texture coords

g DoorsWay_T1_01
s 1
f 4/4/1 1/1/2 2/2/3 3/3/4 
s 2
f 1/8/5 5/5/6 6/6/7 2/7/8 
s 1
f 6/12/9 5/9/10 299/10/11 7/11/12 
s 2
f 3/13/13 8/14/14 9/15/15 
f 12/18/16 9/15/17 10/16/18 11/17/19 
f 12/18/20 13/19/21 4/20/22 
f 9/15/23 12/18/24 4/20/25 3/13/26 
s 1
f 17/24/27 14/21/28 15/22/29 16/23/30 
s 4
f 11/28/31 10/25/32 14/26/33 17/27/34 
s 2
f 16/32/35 15/29/36 18/30/37 178/31/38 
s 1
f 237/36/39 19/33/40 20/34/41 21/35/42 
f 23/40/43 184/37/44 181/38/45 22/39/46 
s 2
f 20/44/47 23/41/48 22/42/49 21/43/50 
s 4
f 21/48/51 22/45/52 181/46/53 237/47/54 
s 1
f 26/52/55 24/49/56 242/50/57 25/51/58 
f 30/56/59 27/53/60 28/54/61 29/55/62 
s 2
f 29/60/63 28/57/64 26/58/65 25/59/66 
s 4
f 30/64/67 29/61/68 25/62/69 242/63/70 
s 1
f 32/68/71 191/65/72 161/66/73 31/67/74 
s 2
f 34/72/75 32/69/76 31/70/77 33/71/78 
s 4
f 33/76/79 31/73/80 161/74/81 35/75/82 
s 1
f 38/80/83 196/77/84 36/78/85 37/79/86 
s 2
f 37/84/87 36/81/88 39/82/89 40/83/90 
s 4
f 38/88/91 37/85/92 40/86/93 41/87/94 
s 1
f 45/92/95 42/89/96 43/90/97 44/91/98 
s 2
f 47/96/99 45/93/100 44/94/101 46/95/102 
f 42/100/103 48/97/104 49/98/105 43/99/106 
s 1
f 53/104/107 50/101/108 51/102/109 52/103/110 
s 2
f 52/108/111 51/105/112 54/106/113 55/107/114 
f 57/112/115 56/109/116 50/110/117 53/111/118 
s 1
f 61/116/119 58/113/120 59/114/121 60/115/122 
f 63/120/123 222/117/124 219/118/125 62/119/126 
s 2
f 63/124/127 64/121/128 65/122/129 66/123/130 
f 64/121/131 63/124/132 62/125/133 67/126/134 
f 69/128/135 68/127/136 67/126/137 62/125/138 
f 68/127/139 69/128/140 66/123/141 65/122/142 
s 4
f 64/132/143 58/129/144 61/130/145 65/131/146 
s 8
f 59/136/147 58/133/148 64/134/149 67/135/150 
s 4
f 68/140/151 60/137/152 59/138/153 67/139/154 
s 8
f 65/144/155 61/141/156 60/142/157 68/143/158 
s 1
f 66/148/159 69/145/160 70/146/161 71/147/162 
f 75/152/163 72/149/164 73/150/165 74/151/166 
f 79/156/167 76/153/168 77/154/169 78/155/170 
s 2
f 237/160/171 161/157/172 76/158/173 79/159/174 
s 1
f 83/164/175 80/161/176 81/162/177 82/163/178 
s 2
f 82/168/179 81/165/180 84/166/181 242/167/182 
s 1
f 88/172/183 85/169/184 86/170/185 87/171/186 
f 92/176/187 89/173/188 90/174/189 91/175/190 
f 96/180/191 93/177/192 94/178/193 95/179/194 
f 98/182/195 97/181/196 95/179/197 94/178/198 
f 97/181/199 98/182/200 99/183/201 100/184/202 
f 93/177/203 96/180/204 100/184/205 99/183/206 
s 2
f 90/188/207 96/185/208 95/186/209 91/187/210 
s 4
f 95/192/211 97/189/212 92/190/213 91/191/214 
s 2
f 92/196/215 97/193/216 100/194/217 89/195/218 
s 4
f 89/200/219 100/197/220 96/198/221 90/199/222 
s 1
f 104/204/223 101/201/224 102/202/225 103/203/226 
f 108/208/227 105/205/228 106/206/229 107/207/230 
f 94/178/231 109/209/232 107/207/233 106/206/234 
f 109/209/235 94/178/236 93/177/237 110/210/238 
f 105/205/239 108/208/240 110/210/241 93/177/242 
s 2
f 102/214/243 108/211/244 107/212/245 103/213/246 
s 4
f 107/218/247 109/215/248 104/216/249 103/217/250 
s 2
f 104/222/251 109/219/252 110/220/253 101/221/254 
s 4
f 101/226/255 110/223/256 108/224/257 102/225/258 
s 2
f 112/230/259 98/227/260 94/228/261 111/229/262 
f 270/234/263 93/231/264 99/232/265 269/233/266 
f 111/229/267 94/228/268 106/235/269 271/236/270 
f 113/238/271 105/237/272 93/231/273 270/234/274 
s 1
f 117/242/275 114/239/276 115/240/277 116/241/278 
f 121/246/279 118/243/280 119/244/281 120/245/282 
f 123/248/283 122/247/284 120/245/285 119/244/286 
f 122/247/287 123/248/288 124/249/289 125/250/290 
f 118/243/291 121/246/292 125/250/293 124/249/294 
s 2
f 115/254/295 121/251/296 120/252/297 116/253/298 
s 4
f 120/258/299 122/255/300 117/256/301 116/257/302 
s 2
f 117/262/303 122/259/304 125/260/305 114/261/306 
s 4
f 114/266/307 125/263/308 121/264/309 115/265/310 
s 1
f 129/270/311 126/267/312 127/268/313 128/269/314 
f 133/274/315 130/271/316 131/272/317 132/273/318 
f 119/244/319 134/275/320 132/273/321 131/272/322 
f 134/275/323 119/244/324 118/243/325 135/276/326 
f 130/271/327 133/274/328 135/276/329 118/243/330 
s 2
f 127/280/331 133/277/332 132/278/333 128/279/334 
s 4
f 132/284/335 134/281/336 129/282/337 128/283/338 
s 2
f 129/288/339 134/285/340 135/286/341 126/287/342 
s 4
f 126/292/343 135/289/344 133/290/345 127/291/346 
s 2
f 295/296/347 123/293/348 119/294/349 294/295/350 
f 136/300/351 118/297/352 124/298/353 296/299/354 
f 294/295/355 119/294/356 131/301/357 297/302/358 
f 298/304/359 130/303/360 118/297/361 136/300/362 
s 4
f 139/308/363 137/305/364 138/306/365 299/307/366 
s 1
f 123/248/367 137/309/368 139/310/369 124/249/370 
s 2
f 123/293/371 295/296/372 138/311/373 137/312/374 
f 124/298/375 139/313/376 299/314/377 296/299/378 
s 4
f 142/318/379 140/315/380 302/316/381 141/317/382 
s 1
f 142/320/383 141/319/384 131/272/385 130/271/386 
s 4
f 144/324/387 308/321/388 305/322/389 143/323/390 
s 1
f 144/326/391 143/325/392 106/206/393 105/205/394 
s 4
f 146/330/395 145/327/396 309/328/397 310/329/398 
s 1
f 98/182/399 145/331/400 146/332/401 99/183/402 
s 2
f 98/227/403 112/230/404 309/333/405 145/334/406 
f 99/232/407 146/335/408 310/336/409 269/233/410 
f 140/338/411 142/337/412 130/303/413 298/304/414 
f 297/302/415 131/301/416 141/339/417 302/340/418 
f 308/342/419 144/341/420 105/237/421 113/238/422 
f 271/236/423 106/235/424 143/343/425 305/344/426 
s 1
f 150/348/427 147/345/428 148/346/429 149/347/430 
f 154/352/431 151/349/432 152/350/433 153/351/434 
s 2
f 157/356/435 155/353/436 152/354/437 156/355/438 
f 153/358/439 152/354/440 155/353/441 158/357/442 
f 158/357/443 159/359/444 160/360/445 153/358/446 
f 156/355/447 160/360/448 159/359/449 157/356/450 
s 4
f 148/364/451 147/361/452 155/362/453 157/363/454 
s 8
f 155/368/455 147/365/456 150/366/457 158/367/458 
s 4
f 150/372/459 149/369/460 159/370/461 158/371/462 
s 8
f 149/376/463 148/373/464 157/374/465 159/375/466 
s 1
f 326/380/467 160/377/468 156/378/469 325/379/470 
f 164/383/471 163/382/472 162/381/473 165/384/474 
s 2
f 165/387/475 162/386/476 166/385/477 167/388/478 
s 1
f 166/391/479 7/390/480 299/389/481 167/392/482 
s 2
f 163/393/483 169/395/484 168/394/485 
f 172/398/486 171/397/487 170/396/488 169/395/489 
f 172/398/490 164/400/491 173/399/492 
f 169/395/493 163/393/494 164/400/495 172/398/496 
s 1
f 176/403/497 175/402/498 174/401/499 177/404/500 
s 4
f 171/407/501 176/406/502 177/405/503 170/408/504 
s 2
f 175/411/505 178/410/506 18/409/507 174/412/508 
s 1
f 237/415/509 180/414/510 179/413/511 19/416/512 
f 183/419/513 182/418/514 181/417/515 184/420/516 
s 2
f 179/423/517 180/422/518 182/421/519 183/424/520 
s 4
f 180/427/521 237/426/522 181/425/523 182/428/524 
s 1
f 186/431/525 185/430/526 242/429/527 24/432/528 
f 30/435/529 188/434/530 187/433/531 27/436/532 
s 2
f 188/439/533 185/438/534 186/437/535 187/440/536 
s 4
f 30/443/537 242/442/538 185/441/539 188/444/540 
s 1
f 190/447/541 189/446/542 161/445/543 191/448/544 
s 2
f 193/451/545 192/450/546 189/449/547 190/452/548 
s 4
f 192/455/549 35/454/550 161/453/551 189/456/552 
s 1
f 38/459/553 195/458/554 194/457/555 196/460/556 
s 2
f 195/463/557 198/462/558 197/461/559 194/464/560 
s 4
f 38/467/561 41/466/562 198/465/563 195/468/564 
s 1
f 201/471/565 200/470/566 199/469/567 202/472/568 
s 2
f 204/475/569 203/474/570 200/473/571 201/476/572 
f 202/479/573 199/478/574 205/477/575 206/480/576 
s 1
f 209/483/577 208/482/578 207/481/579 210/484/580 
s 2
f 208/487/581 212/486/582 211/485/583 207/488/584 
f 213/491/585 209/490/586 210/489/587 214/492/588 
s 1
f 217/495/589 216/494/590 215/493/591 218/496/592 
f 221/499/593 220/498/594 219/497/595 222/500/596 
s 2
f 221/503/597 224/502/598 223/501/599 225/504/600 
f 225/504/601 226/506/602 220/505/603 221/503/604 
f 227/507/605 220/505/606 226/506/607 228/508/608 
f 228/508/609 223/501/610 224/502/611 227/507/612 
s 4
f 225/511/613 223/510/614 217/509/615 218/512/616 
s 8
f 215/515/617 226/514/618 225/513/619 218/516/620 
s 4
f 228/519/621 226/518/622 215/517/623 216/520/624 
s 8
f 223/523/625 228/522/626 216/521/627 217/524/628 
s 1
f 224/527/629 71/526/630 70/525/631 227/528/632 
f 231/531/633 230/530/634 229/529/635 232/532/636 
f 235/535/637 234/534/638 233/533/639 236/536/640 
s 2
f 237/539/641 235/538/642 236/537/643 161/540/644 
s 1
f 240/543/645 239/542/646 238/541/647 241/544/648 
s 2
f 239/547/649 242/546/650 84/545/651 238/548/652 
s 1
f 245/551/653 244/550/654 243/549/655 246/552/656 
f 249/555/657 248/554/658 247/553/659 250/556/660 
f 253/559/661 252/558/662 251/557/663 254/560/664 
f 255/561/665 251/557/666 252/558/667 256/562/668 
f 256/562/669 258/564/670 257/563/671 255/561/672 
f 254/560/673 257/563/674 258/564/675 253/559/676 
s 2
f 247/567/677 248/566/678 252/565/679 253/568/680 
s 4
f 252/571/681 248/570/682 249/569/683 256/572/684 
s 2
f 249/575/685 250/574/686 258/573/687 256/576/688 
s 4
f 250/579/689 247/578/690 253/577/691 258/580/692 
s 1
f 261/583/693 260/582/694 259/581/695 262/584/696 
f 265/587/697 264/586/698 263/585/699 266/588/700 
f 251/557/701 263/585/702 264/586/703 267/589/704 
f 267/589/705 268/590/706 254/560/707 251/557/708 
f 266/588/709 254/560/710 268/590/711 265/587/712 
s 2
f 259/593/713 260/592/714 264/591/715 265/594/716 
s 4
f 264/597/717 260/596/718 261/595/719 267/598/720 
s 2
f 261/601/721 262/600/722 268/599/723 267/602/724 
s 4
f 262/605/725 259/604/726 265/603/727 268/606/728 
s 2
f 112/609/729 111/608/730 251/607/731 255/610/732 
f 270/613/733 269/612/734 257/611/735 254/614/736 
f 111/608/737 271/616/738 263/615/739 251/607/740 
f 113/617/741 270/613/742 254/614/743 266/618/744 
s 1
f 274/621/745 273/620/746 272/619/747 275/622/748 
f 278/625/749 277/624/750 276/623/751 279/626/752 
f 280/627/753 276/623/754 277/624/755 281/628/756 
f 281/628/757 283/630/758 282/629/759 280/627/760 
f 279/626/761 282/629/762 283/630/763 278/625/764 
s 2
f 272/633/765 273/632/766 277/631/767 278/634/768 
s 4
f 277/637/769 273/636/770 274/635/771 281/638/772 
s 2
f 274/641/773 275/640/774 283/639/775 281/642/776 
s 4
f 275/645/777 272/644/778 278/643/779 283/646/780 
s 1
f 286/649/781 285/648/782 284/647/783 287/650/784 
f 290/653/785 289/652/786 288/651/787 291/654/788 
f 276/623/789 288/651/790 289/652/791 292/655/792 
f 292/655/793 293/656/794 279/626/795 276/623/796 
f 291/654/797 279/626/798 293/656/799 290/653/800 
s 2
f 284/659/801 285/658/802 289/657/803 290/660/804 
s 4
f 289/663/805 285/662/806 286/661/807 292/664/808 
s 2
f 286/667/809 287/666/810 293/665/811 292/668/812 
s 4
f 287/671/813 284/670/814 290/669/815 293/672/816 
s 2
f 295/675/817 294/674/818 276/673/819 280/676/820 
f 136/679/821 296/678/822 282/677/823 279/680/824 
f 294/674/825 297/682/826 288/681/827 276/673/828 
f 298/683/829 136/679/830 279/680/831 291/684/832 
s 4
f 300/687/833 299/686/834 138/685/835 301/688/836 
s 1
f 280/627/837 282/629/838 300/689/839 301/690/840 
s 2
f 280/676/841 301/692/842 138/691/843 295/675/844 
f 282/677/845 296/678/846 299/693/847 300/694/848 
s 4
f 304/697/849 303/696/850 302/695/851 140/698/852 
s 1
f 304/699/853 291/654/854 288/651/855 303/700/856 
s 4
f 307/703/857 306/702/858 305/701/859 308/704/860 
s 1
f 307/705/861 266/588/862 263/585/863 306/706/864 
s 4
f 311/709/865 310/708/866 309/707/867 312/710/868 
s 1
f 255/561/869 257/563/870 311/711/871 312/712/872 
s 2
f 255/610/873 312/714/874 309/713/875 112/609/876 
f 257/611/877 269/612/878 310/715/879 311/716/880 
f 140/717/881 298/683/882 291/684/883 304/718/884 
f 297/682/885 302/720/886 303/719/887 288/681/888 
f 308/721/889 113/617/890 266/618/891 307/722/892 
f 271/616/893 305/724/894 306/723/895 263/615/896 
s 1
f 315/727/897 314/726/898 313/725/899 316/728/900 
f 154/731/901 318/730/902 317/729/903 151/732/904 
s 2
f 320/735/905 319/734/906 317/733/907 321/736/908 
f 318/738/909 322/737/910 321/736/911 317/733/912 
f 322/737/913 318/738/914 323/739/915 324/740/916 
f 319/734/917 320/735/918 324/740/919 323/739/920 
s 4
f 313/743/921 320/742/922 321/741/923 316/744/924 
s 8
f 321/747/925 322/746/926 315/745/927 316/748/928 
s 4
f 315/751/929 322/750/930 324/749/931 314/752/932 
s 8
f 314/755/933 324/754/934 320/753/935 313/756/936 
s 1
f 326/759/937 325/758/938 319/757/939 323/760/940 
# 232 polygons - 4 triangles

