# 3ds Max Wavefront OBJ Exporter v0.97b - (c)2007 guruware
# File Created: 11.03.2017 22:34:18

#
# object Column_01_02
#

v  24.8452 103.7000 21.8018
v  -21.8018 103.7000 24.8452
v  21.8018 296.3000 24.8452
v  -24.8452 296.3000 21.8018
v  24.8452 96.3000 -21.8018
v  24.8452 296.3000 -21.8018
v  -24.8452 103.7000 -21.8018
v  -21.8018 296.3000 -24.8452
v  21.8018 103.7000 24.8452
v  -24.8452 103.7000 21.8018
v  24.8452 296.3000 21.8018
v  -21.8018 296.3000 24.8452
v  21.8018 96.3000 -24.8452
v  21.8018 296.3000 -24.8452
v  -21.8018 103.7000 -24.8452
v  -24.8452 296.3000 -21.8018
v  24.8452 3.7000 -21.8018
v  21.8018 203.7000 24.8452
v  -21.8018 196.3000 24.8452
v  24.8452 196.3000 -21.8018
v  -21.8018 203.7000 -24.8452
v  24.8452 196.3000 21.8018
v  -24.8452 203.7000 21.8018
v  21.8018 196.3000 -24.8452
v  -24.8452 196.3000 -21.8018
v  24.8452 96.3000 21.8018
v  -21.8018 96.3000 24.8452
v  24.8452 103.7000 -21.8018
v  -24.8452 96.3000 -21.8018
v  21.8018 96.3000 24.8452
v  -24.8452 96.3000 21.8018
v  21.8018 103.7000 -24.8452
v  -21.8018 96.3000 -24.8452
v  21.8018 3.7000 24.8452
v  -21.8018 3.7000 24.8452
v  -21.8018 3.7000 -24.8452
v  24.8452 3.7000 21.8018
v  -24.8452 3.7000 21.8018
v  21.8018 3.7000 -24.8452
v  -24.8452 3.7000 -21.8018
v  21.8018 196.3000 24.8452
v  -21.8018 203.7000 24.8452
v  24.8452 203.7000 -21.8018
v  -21.8018 196.3000 -24.8452
v  24.8452 203.7000 21.8018
v  -24.8452 196.3000 21.8018
v  21.8018 203.7000 -24.8452
v  -24.8452 203.7000 -21.8018
v  22.8255 100.0000 20.0295
v  -20.0295 100.0000 22.8255
v  22.8255 100.0000 -20.0295
v  -22.8255 100.0000 -20.0295
v  20.0295 100.0000 22.8255
v  -22.8255 100.0000 20.0295
v  20.0295 100.0000 -22.8255
v  -20.0295 100.0000 -22.8255
v  20.0295 0.0000 22.8255
v  -20.0295 0.0000 22.8255
v  22.8255 0.0000 -20.0295
v  -20.0295 0.0000 -22.8255
v  22.8255 0.0000 20.0295
v  -22.8255 0.0000 20.0295
v  20.0295 0.0000 -22.8255
v  -22.8255 0.0000 -20.0295
v  20.0295 200.0000 22.8255
v  -20.0295 200.0000 22.8255
v  22.8255 200.0000 -20.0295
v  -20.0295 200.0000 -22.8255
v  22.8255 200.0000 20.0295
v  -22.8255 200.0000 20.0295
v  20.0295 200.0000 -22.8255
v  -22.8255 200.0000 -20.0295
v  20.0295 300.0000 22.8255
v  -22.8255 300.0000 20.0295
v  22.8255 300.0000 -20.0295
v  -20.0295 300.0000 -22.8255
v  22.8255 300.0000 20.0295
v  -20.0295 300.0000 22.8255
v  20.0295 300.0000 -22.8255
v  -22.8255 300.0000 -20.0295
# 80 vertices

vn -0.3816 -0.2805 0.8807
vn 0.3816 -0.2805 0.8807
vn 0.3816 0.2805 0.8807
vn -0.3816 0.2805 0.8807
vn -0.3816 -0.2805 0.8807
vn 0.3816 -0.2805 0.8807
vn 0.3816 0.2805 0.8807
vn -0.3816 0.2805 0.8807
vn -0.3816 -0.2805 0.8807
vn 0.3816 -0.2805 0.8807
vn 0.3816 0.2805 0.8807
vn -0.3816 0.2805 0.8807
vn 0.3816 0.2805 0.8807
vn 0.2725 0.5583 0.7836
vn -0.2725 0.5583 0.7836
vn -0.3816 0.2805 0.8807
vn 0.3816 0.2805 0.8807
vn 0.2725 0.5583 0.7836
vn -0.2725 0.5583 0.7836
vn -0.3816 0.2805 0.8807
vn 0.2725 -0.5583 0.7836
vn 0.3816 -0.2805 0.8807
vn -0.3816 -0.2805 0.8807
vn -0.2725 -0.5583 0.7836
vn 0.2725 -0.5583 0.7836
vn 0.3816 -0.2805 0.8807
vn -0.3816 -0.2805 0.8807
vn -0.2725 -0.5583 0.7836
vn 0.2725 -0.5583 0.7836
vn 0.3816 -0.2805 0.8807
vn -0.3816 -0.2805 0.8807
vn -0.2725 -0.5583 0.7836
vn -0.2725 0.5583 0.7836
vn -0.3816 0.2805 0.8807
vn 0.3816 0.2805 0.8807
vn 0.2725 0.5583 0.7836
vn 0.8807 -0.2805 0.3816
vn 0.8807 -0.2805 -0.3816
vn 0.8807 0.2805 -0.3816
vn 0.8807 0.2805 0.3816
vn 0.8807 -0.2805 0.3816
vn 0.8807 -0.2805 -0.3816
vn 0.8807 0.2805 -0.3816
vn 0.8807 0.2805 0.3816
vn 0.8807 -0.2805 0.3816
vn 0.8807 -0.2805 -0.3816
vn 0.8807 0.2805 -0.3816
vn 0.8807 0.2805 0.3816
vn 0.8807 0.2805 -0.3816
vn 0.7836 0.5583 -0.2725
vn 0.7836 0.5583 0.2725
vn 0.8807 0.2805 0.3816
vn 0.8807 0.2805 -0.3816
vn 0.7836 0.5583 -0.2725
vn 0.7836 0.5583 0.2725
vn 0.8807 0.2805 0.3816
vn 0.7836 -0.5583 -0.2725
vn 0.8807 -0.2805 -0.3816
vn 0.8807 -0.2805 0.3816
vn 0.7836 -0.5583 0.2725
vn 0.7836 -0.5583 -0.2725
vn 0.8807 -0.2805 -0.3816
vn 0.8807 -0.2805 0.3816
vn 0.7836 -0.5583 0.2725
vn 0.7836 -0.5583 -0.2725
vn 0.8807 -0.2805 -0.3816
vn 0.8807 -0.2805 0.3816
vn 0.7836 -0.5583 0.2725
vn 0.7836 0.5583 0.2725
vn 0.8807 0.2805 0.3816
vn 0.8807 0.2805 -0.3816
vn 0.7836 0.5583 -0.2725
vn 0.3816 -0.2805 -0.8807
vn -0.3816 -0.2805 -0.8807
vn -0.3816 0.2805 -0.8807
vn 0.3816 0.2805 -0.8807
vn 0.3816 -0.2805 -0.8807
vn -0.3816 -0.2805 -0.8807
vn -0.3816 0.2805 -0.8807
vn 0.3816 0.2805 -0.8807
vn 0.3816 -0.2805 -0.8807
vn -0.3816 -0.2805 -0.8807
vn -0.3816 0.2805 -0.8807
vn 0.3816 0.2805 -0.8807
vn -0.3816 0.2805 -0.8807
vn -0.2725 0.5583 -0.7836
vn 0.2725 0.5583 -0.7836
vn 0.3816 0.2805 -0.8807
vn -0.3816 0.2805 -0.8807
vn -0.2725 0.5583 -0.7836
vn 0.2725 0.5583 -0.7836
vn 0.3816 0.2805 -0.8807
vn -0.2725 -0.5583 -0.7836
vn -0.3816 -0.2805 -0.8807
vn 0.3816 -0.2805 -0.8807
vn 0.2725 -0.5583 -0.7836
vn -0.2725 -0.5583 -0.7836
vn -0.3816 -0.2805 -0.8807
vn 0.3816 -0.2805 -0.8807
vn 0.2725 -0.5583 -0.7836
vn -0.2725 -0.5583 -0.7836
vn -0.3816 -0.2805 -0.8807
vn 0.3816 -0.2805 -0.8807
vn 0.2725 -0.5583 -0.7836
vn 0.2725 0.5583 -0.7836
vn 0.3816 0.2805 -0.8807
vn -0.3816 0.2805 -0.8807
vn -0.2725 0.5583 -0.7836
vn -0.8807 -0.2805 -0.3816
vn -0.8807 -0.2805 0.3816
vn -0.8807 0.2805 0.3816
vn -0.8807 0.2805 -0.3816
vn -0.8807 -0.2805 -0.3816
vn -0.8807 -0.2805 0.3816
vn -0.8807 0.2805 0.3816
vn -0.8807 0.2805 -0.3816
vn -0.8807 -0.2805 -0.3816
vn -0.8807 -0.2805 0.3816
vn -0.8807 0.2805 0.3816
vn -0.8807 0.2805 -0.3816
vn -0.8807 0.2805 0.3816
vn -0.7836 0.5583 0.2725
vn -0.7836 0.5583 -0.2725
vn -0.8807 0.2805 -0.3816
vn -0.8807 0.2805 0.3816
vn -0.7836 0.5583 0.2725
vn -0.7836 0.5583 -0.2725
vn -0.8807 0.2805 -0.3816
vn -0.7836 -0.5583 0.2725
vn -0.8807 -0.2805 0.3816
vn -0.8807 -0.2805 -0.3816
vn -0.7836 -0.5583 -0.2725
vn -0.7836 -0.5583 0.2725
vn -0.8807 -0.2805 0.3816
vn -0.8807 -0.2805 -0.3816
vn -0.7836 -0.5583 -0.2725
vn -0.7836 -0.5583 0.2725
vn -0.8807 -0.2805 0.3816
vn -0.8807 -0.2805 -0.3816
vn -0.7836 -0.5583 -0.2725
vn -0.7836 0.5583 -0.2725
vn -0.8807 0.2805 -0.3816
vn -0.8807 0.2805 0.3816
vn -0.7836 0.5583 0.2725
vn 0.3816 0.2805 0.8807
vn 0.3816 -0.2805 0.8807
vn 0.8807 -0.2805 0.3816
vn 0.8807 0.2805 0.3816
vn 0.3816 -0.2805 0.8807
vn 0.8807 -0.2805 0.3816
vn 0.8807 0.2805 0.3816
vn 0.3816 0.2805 0.8807
vn 0.3816 -0.2805 0.8807
vn 0.8807 -0.2805 0.3816
vn 0.8807 0.2805 0.3816
vn 0.3816 0.2805 0.8807
vn 0.3816 -0.2805 0.8807
vn 0.2725 -0.5583 0.7836
vn 0.7836 -0.5583 0.2725
vn 0.8807 -0.2805 0.3816
vn 0.8807 0.2805 0.3816
vn 0.7836 0.5583 0.2725
vn 0.2725 0.5583 0.7836
vn 0.3816 0.2805 0.8807
vn 0.2725 0.5583 0.7836
vn 0.3816 0.2805 0.8807
vn 0.8807 0.2805 0.3816
vn 0.7836 0.5583 0.2725
vn 0.7836 -0.5583 0.2725
vn 0.8807 -0.2805 0.3816
vn 0.3816 -0.2805 0.8807
vn 0.2725 -0.5583 0.7836
vn 0.7836 -0.5583 0.2725
vn 0.8807 -0.2805 0.3816
vn 0.3816 -0.2805 0.8807
vn 0.2725 -0.5583 0.7836
vn 0.2725 0.5583 0.7836
vn 0.3816 0.2805 0.8807
vn 0.8807 0.2805 0.3816
vn 0.7836 0.5583 0.2725
vn -0.3816 -0.2805 0.8807
vn -0.3816 0.2805 0.8807
vn -0.8807 0.2805 0.3816
vn -0.8807 -0.2805 0.3816
vn -0.3816 -0.2805 0.8807
vn -0.3816 0.2805 0.8807
vn -0.8807 0.2805 0.3816
vn -0.8807 -0.2805 0.3816
vn -0.3816 0.2805 0.8807
vn -0.8807 0.2805 0.3816
vn -0.8807 -0.2805 0.3816
vn -0.3816 -0.2805 0.8807
vn -0.8807 -0.2805 0.3816
vn -0.7836 -0.5583 0.2725
vn -0.2725 -0.5583 0.7836
vn -0.3816 -0.2805 0.8807
vn -0.8807 -0.2805 0.3816
vn -0.7836 -0.5583 0.2725
vn -0.2725 -0.5583 0.7836
vn -0.3816 -0.2805 0.8807
vn -0.8807 -0.2805 0.3816
vn -0.7836 -0.5583 0.2725
vn -0.2725 -0.5583 0.7836
vn -0.3816 -0.2805 0.8807
vn -0.7836 0.5583 0.2725
vn -0.8807 0.2805 0.3816
vn -0.3816 0.2805 0.8807
vn -0.2725 0.5583 0.7836
vn -0.7836 0.5583 0.2725
vn -0.8807 0.2805 0.3816
vn -0.3816 0.2805 0.8807
vn -0.2725 0.5583 0.7836
vn -0.7836 0.5583 0.2725
vn -0.8807 0.2805 0.3816
vn -0.3816 0.2805 0.8807
vn -0.2725 0.5583 0.7836
vn 0.8807 0.2805 -0.3816
vn 0.8807 -0.2805 -0.3816
vn 0.3816 -0.2805 -0.8807
vn 0.3816 0.2805 -0.8807
vn 0.8807 -0.2805 -0.3816
vn 0.3816 -0.2805 -0.8807
vn 0.3816 0.2805 -0.8807
vn 0.8807 0.2805 -0.3816
vn 0.8807 -0.2805 -0.3816
vn 0.3816 -0.2805 -0.8807
vn 0.3816 0.2805 -0.8807
vn 0.8807 0.2805 -0.3816
vn 0.3816 0.2805 -0.8807
vn 0.2725 0.5583 -0.7836
vn 0.7836 0.5583 -0.2725
vn 0.8807 0.2805 -0.3816
vn 0.3816 0.2805 -0.8807
vn 0.2725 0.5583 -0.7836
vn 0.7836 0.5583 -0.2725
vn 0.8807 0.2805 -0.3816
vn 0.2725 -0.5583 -0.7836
vn 0.3816 -0.2805 -0.8807
vn 0.8807 -0.2805 -0.3816
vn 0.7836 -0.5583 -0.2725
vn 0.2725 -0.5583 -0.7836
vn 0.3816 -0.2805 -0.8807
vn 0.8807 -0.2805 -0.3816
vn 0.7836 -0.5583 -0.2725
vn 0.2725 -0.5583 -0.7836
vn 0.3816 -0.2805 -0.8807
vn 0.8807 -0.2805 -0.3816
vn 0.7836 -0.5583 -0.2725
vn 0.7836 0.5583 -0.2725
vn 0.8807 0.2805 -0.3816
vn 0.3816 0.2805 -0.8807
vn 0.2725 0.5583 -0.7836
vn -0.3816 0.2805 -0.8807
vn -0.3816 -0.2805 -0.8807
vn -0.8807 -0.2805 -0.3816
vn -0.8807 0.2805 -0.3816
vn -0.3816 -0.2805 -0.8807
vn -0.8807 -0.2805 -0.3816
vn -0.8807 0.2805 -0.3816
vn -0.3816 0.2805 -0.8807
vn -0.3816 -0.2805 -0.8807
vn -0.8807 -0.2805 -0.3816
vn -0.8807 0.2805 -0.3816
vn -0.3816 0.2805 -0.8807
vn -0.3816 -0.2805 -0.8807
vn -0.2725 -0.5583 -0.7836
vn -0.7836 -0.5583 -0.2725
vn -0.8807 -0.2805 -0.3816
vn -0.8807 0.2805 -0.3816
vn -0.7836 0.5583 -0.2725
vn -0.2725 0.5583 -0.7836
vn -0.3816 0.2805 -0.8807
vn -0.2725 0.5583 -0.7836
vn -0.3816 0.2805 -0.8807
vn -0.8807 0.2805 -0.3816
vn -0.7836 0.5583 -0.2725
vn -0.7836 -0.5583 -0.2725
vn -0.8807 -0.2805 -0.3816
vn -0.3816 -0.2805 -0.8807
vn -0.2725 -0.5583 -0.7836
vn -0.7836 -0.5583 -0.2725
vn -0.8807 -0.2805 -0.3816
vn -0.3816 -0.2805 -0.8807
vn -0.2725 -0.5583 -0.7836
vn -0.2725 0.5583 -0.7836
vn -0.3816 0.2805 -0.8807
vn -0.8807 0.2805 -0.3816
vn -0.7836 0.5583 -0.2725
# 288 vertex normals

vt 0.1470 0.6455 0.0000
vt 0.0100 0.6455 0.0000
vt 0.0100 0.3545 0.0000
vt 0.1470 0.3545 0.0000
vt 0.2976 0.6455 0.0000
vt 0.1606 0.6455 0.0000
vt 0.1606 0.3545 0.0000
vt 0.2976 0.3545 0.0000
vt 0.4481 0.6455 0.0000
vt 0.3111 0.6455 0.0000
vt 0.3111 0.3545 0.0000
vt 0.4481 0.3545 0.0000
vt 0.5987 0.6455 0.0000
vt 0.4617 0.6455 0.0000
vt 0.4617 0.3545 0.0000
vt 0.5987 0.3545 0.0000
vt 0.9265 0.4013 0.0000
vt 0.6355 0.4013 0.0000
vt 0.6355 0.3878 0.0000
vt 0.9265 0.3878 0.0000
vt 0.0235 0.0244 0.0000
vt 0.0235 0.3154 0.0000
vt 0.0100 0.3154 0.0000
vt 0.0100 0.0244 0.0000
vt 0.9265 0.8530 0.0000
vt 0.9265 0.9900 0.0000
vt 0.6355 0.9900 0.0000
vt 0.6355 0.8530 0.0000
vt 0.9265 0.7024 0.0000
vt 0.9265 0.8394 0.0000
vt 0.6355 0.8394 0.0000
vt 0.6355 0.7024 0.0000
vt 0.9265 0.5519 0.0000
vt 0.9265 0.6889 0.0000
vt 0.6355 0.6889 0.0000
vt 0.6355 0.5519 0.0000
vt 0.9265 0.5383 0.0000
vt 0.6355 0.5383 0.0000
vt 0.4752 0.0244 0.0000
vt 0.6122 0.0244 0.0000
vt 0.6122 0.3154 0.0000
vt 0.4752 0.3154 0.0000
vt 0.3246 0.0244 0.0000
vt 0.4617 0.0244 0.0000
vt 0.4617 0.3154 0.0000
vt 0.3246 0.3154 0.0000
vt 0.1741 0.0244 0.0000
vt 0.3111 0.0244 0.0000
vt 0.3111 0.3154 0.0000
vt 0.1741 0.3154 0.0000
vt 0.1606 0.0244 0.0000
vt 0.1606 0.3154 0.0000
vt 0.6122 0.3545 0.0000
vt 0.6122 0.6455 0.0000
vt 0.9397 0.9844 0.0000
vt 0.9397 0.8585 0.0000
vt 0.9397 0.8339 0.0000
vt 0.9397 0.7080 0.0000
vt 0.9397 0.6833 0.0000
vt 0.9397 0.5574 0.0000
vt 0.9397 0.5328 0.0000
vt 0.9397 0.4069 0.0000
vt 0.1600 0.3401 0.0000
vt 0.1476 0.3401 0.0000
vt 0.6117 0.3401 0.0000
vt 0.5992 0.3401 0.0000
vt 0.9408 0.7019 0.0000
vt 0.9408 0.6894 0.0000
vt 0.4611 0.3401 0.0000
vt 0.4487 0.3401 0.0000
vt 0.6211 0.3883 0.0000
vt 0.6211 0.4008 0.0000
vt 0.0156 0.6588 0.0000
vt 0.1415 0.6587 0.0000
vt 0.1661 0.6587 0.0000
vt 0.2920 0.6587 0.0000
vt 0.3167 0.6587 0.0000
vt 0.4426 0.6587 0.0000
vt 0.4672 0.6587 0.0000
vt 0.5931 0.6587 0.0000
vt 0.1476 0.6599 0.0000
vt 0.1600 0.6599 0.0000
vt 0.0106 0.3297 0.0000
vt 0.0230 0.3297 0.0000
vt 0.2981 0.6599 0.0000
vt 0.3106 0.6599 0.0000
vt 0.4487 0.6599 0.0000
vt 0.4611 0.6599 0.0000
vt 0.0156 0.3413 0.0000
vt 0.1415 0.3413 0.0000
vt 0.1661 0.3412 0.0000
vt 0.2920 0.3412 0.0000
vt 0.3167 0.3412 0.0000
vt 0.4426 0.3412 0.0000
vt 0.4672 0.3412 0.0000
vt 0.5931 0.3412 0.0000
vt 0.9408 0.8400 0.0000
vt 0.9408 0.8524 0.0000
vt 0.9408 0.3883 0.0000
vt 0.9408 0.4008 0.0000
vt 0.2981 0.3401 0.0000
vt 0.3106 0.3401 0.0000
vt 0.9408 0.5389 0.0000
vt 0.9408 0.5513 0.0000
vt 0.6222 0.9844 0.0000
vt 0.6222 0.8585 0.0000
vt 0.6222 0.8339 0.0000
vt 0.6222 0.7080 0.0000
vt 0.6222 0.6833 0.0000
vt 0.6222 0.5574 0.0000
vt 0.6222 0.5328 0.0000
vt 0.6222 0.4069 0.0000
vt 0.6211 0.8524 0.0000
vt 0.6211 0.8400 0.0000
vt 0.6211 0.7019 0.0000
vt 0.6211 0.6894 0.0000
vt 0.6211 0.5513 0.0000
vt 0.6211 0.5389 0.0000
vt 0.6067 0.3286 0.0000
vt 0.4808 0.3286 0.0000
vt 0.4561 0.3286 0.0000
vt 0.3302 0.3286 0.0000
vt 0.3055 0.3286 0.0000
vt 0.1797 0.3286 0.0000
vt 0.1550 0.3286 0.0000
vt 0.0291 0.3286 0.0000
vt 0.4746 0.3297 0.0000
vt 0.4622 0.3297 0.0000
vt 0.6117 0.6599 0.0000
vt 0.5992 0.6599 0.0000
vt 0.3241 0.3297 0.0000
vt 0.3117 0.3297 0.0000
vt 0.1735 0.3297 0.0000
vt 0.1611 0.3297 0.0000
vt 0.4808 0.0111 0.0000
vt 0.6066 0.0111 0.0000
vt 0.3302 0.0111 0.0000
vt 0.4561 0.0111 0.0000
vt 0.1796 0.0111 0.0000
vt 0.3055 0.0111 0.0000
vt 0.0291 0.0111 0.0000
vt 0.1550 0.0111 0.0000
vt 0.4622 0.0100 0.0000
vt 0.4746 0.0100 0.0000
vt 0.0105 0.0100 0.0000
vt 0.0230 0.0100 0.0000
vt 0.3117 0.0100 0.0000
vt 0.3241 0.0100 0.0000
vt 0.1611 0.0100 0.0000
vt 0.1735 0.0100 0.0000
# 150 texture coords

g Column_01_02
s 1
f 2/3/1 9/4/2 41/1/3 19/2/4 
s 2
f 35/27/5 34/28/6 30/25/7 27/26/8 
f 42/41/9 18/42/10 3/39/11 12/40/12 
f 30/25/13 53/56/14 50/55/15 27/26/16 
s 1
f 41/1/17 65/74/18 66/73/19 19/2/20 
f 53/90/21 9/4/22 2/3/23 50/89/24 
s 2
f 57/106/25 34/28/26 35/27/27 58/105/28 
f 65/120/29 18/42/30 42/41/31 66/119/32 
f 78/136/33 12/40/34 3/39/35 73/135/36 
s 1
f 1/7/37 28/8/38 20/5/39 22/6/40 
s 2
f 37/31/41 17/32/42 5/29/43 26/30/44 
f 45/45/45 43/46/46 6/43/47 11/44/48 
f 5/29/49 51/58/50 49/57/51 26/30/52 
s 1
f 20/5/53 67/76/54 69/75/55 22/6/56 
f 51/92/57 28/8/58 1/7/59 49/91/60 
s 2
f 59/108/61 17/32/62 37/31/63 61/107/64 
f 67/122/65 43/46/66 45/45/67 69/121/68 
f 77/138/69 11/44/70 6/43/71 75/137/72 
s 1
f 32/11/73 15/12/74 44/9/75 24/10/76 
s 2
f 39/35/77 36/36/78 33/33/79 13/34/80 
f 47/49/81 21/50/82 8/47/83 14/48/84 
f 33/33/85 56/60/86 55/59/87 13/34/88 
s 1
f 44/9/89 68/78/90 71/77/91 24/10/92 
f 56/94/93 15/12/94 32/11/95 55/93/96 
s 2
f 60/110/97 36/36/98 39/35/99 63/109/100 
f 68/124/101 21/50/102 47/49/103 71/123/104 
f 79/140/105 14/48/106 8/47/107 76/139/108 
s 1
f 7/15/109 10/16/110 46/13/111 25/14/112 
s 2
f 40/38/113 38/18/114 31/17/115 29/37/116 
f 48/52/117 23/22/118 4/21/119 16/51/120 
f 31/17/121 54/62/122 52/61/123 29/37/124 
s 1
f 46/13/125 70/80/126 72/79/127 25/14/128 
f 54/96/129 10/16/130 7/15/131 52/95/132 
s 2
f 62/112/133 38/18/134 40/38/135 64/111/136 
f 70/126/137 23/22/138 48/52/139 72/125/140 
f 80/142/141 16/51/142 4/21/143 74/141/144 
s 1
f 41/1/145 9/4/146 1/7/147 22/6/148 
s 2
f 34/28/149 37/31/150 26/30/151 30/25/152 
f 18/42/153 45/45/154 11/44/155 3/39/156 
s 1
f 9/4/157 53/64/158 49/63/159 1/7/160 
f 22/6/161 69/82/162 65/81/163 41/1/164 
s 2
f 53/98/165 30/25/166 26/30/167 49/97/168 
f 61/114/169 37/31/170 34/28/171 57/113/172 
f 69/128/173 45/45/174 18/42/175 65/127/176 
f 73/144/177 3/39/178 11/44/179 77/143/180 
f 35/19/181 27/20/182 31/17/183 38/18/184 
f 42/23/185 12/24/186 4/21/187 23/22/188 
s 1
f 19/54/189 46/13/190 10/16/191 2/53/192 
f 10/16/193 54/66/194 50/65/195 2/53/196 
s 2
f 38/18/197 62/72/198 58/71/199 35/19/200 
f 23/22/201 70/84/202 66/83/203 42/23/204 
f 54/100/205 31/17/206 27/20/207 50/99/208 
s 1
f 70/130/209 46/13/210 19/54/211 66/129/212 
s 2
f 74/146/213 4/21/214 12/24/215 78/145/216 
s 1
f 20/5/217 28/8/218 32/11/219 24/10/220 
s 2
f 17/32/221 39/35/222 13/34/223 5/29/224 
f 43/46/225 47/49/226 14/48/227 6/43/228 
f 13/34/229 55/68/230 51/67/231 5/29/232 
s 1
f 24/10/233 71/86/234 67/85/235 20/5/236 
f 55/102/237 32/11/238 28/8/239 51/101/240 
s 2
f 63/116/241 39/35/242 17/32/243 59/115/244 
f 71/132/245 47/49/246 43/46/247 67/131/248 
f 75/148/249 6/43/250 14/48/251 79/147/252 
s 1
f 44/9/253 15/12/254 7/15/255 25/14/256 
s 2
f 36/36/257 40/38/258 29/37/259 33/33/260 
f 21/50/261 48/52/262 16/51/263 8/47/264 
s 1
f 15/12/265 56/70/266 52/69/267 7/15/268 
f 25/14/269 72/88/270 68/87/271 44/9/272 
s 2
f 56/104/273 33/33/274 29/37/275 52/103/276 
f 64/118/277 40/38/278 36/36/279 60/117/280 
f 72/134/281 48/52/282 21/50/283 68/133/284 
f 76/150/285 8/47/286 16/51/287 80/149/288 
# 72 polygons

